<?xml version="1.0" encoding="UTF-8" standalone="no"?>
<!-- Created with Inkscape (http://www.inkscape.org/) -->

<svg
   xmlns:dc="http://purl.org/dc/elements/1.1/"
   xmlns:cc="http://creativecommons.org/ns#"
   xmlns:rdf="http://www.w3.org/1999/02/22-rdf-syntax-ns#"
   xmlns:svg="http://www.w3.org/2000/svg"
   xmlns="http://www.w3.org/2000/svg"
   xmlns:sodipodi="http://sodipodi.sourceforge.net/DTD/sodipodi-0.dtd"
   xmlns:inkscape="http://www.inkscape.org/namespaces/inkscape"
   id="svg2"
   version="1.1"
   inkscape:version="0.48.3.1 r9886"
   width="882"
   height="868"
   sodipodi:docname="F47.png">
  <metadata
     id="metadata8">
    <rdf:RDF>
      <cc:Work
         rdf:about="">
        <dc:format>image/svg+xml</dc:format>
        <dc:type
           rdf:resource="http://purl.org/dc/dcmitype/StillImage" />
        <dc:title></dc:title>
      </cc:Work>
    </rdf:RDF>
  </metadata>
  <defs
     id="defs6" />
  <sodipodi:namedview
     pagecolor="#ffffff"
     bordercolor="#666666"
     borderopacity="1"
     objecttolerance="10"
     gridtolerance="10"
     guidetolerance="10"
     inkscape:pageopacity="0"
     inkscape:pageshadow="2"
     inkscape:window-width="640"
     inkscape:window-height="480"
     id="namedview4"
     showgrid="false"
     inkscape:zoom="0.2718894"
     inkscape:cx="441"
     inkscape:cy="434"
     inkscape:window-x="0"
     inkscape:window-y="27"
     inkscape:window-maximized="0"
     inkscape:current-layer="svg2" />
  <path
     style="fill:#000000"
     d="m 422,859.49828 c -36.55269,-4.70756 -46.34793,-6.87869 -61,-13.5207 -23.66137,-10.72606 -40.61892,-23.99191 -56.8551,-44.47758 -3.92318,-4.95 -7.49511,-9.45 -7.93761,-10 C 290.61695,784.55163 279,765.29888 279,762.98239 279,761.89207 278.63132,761 278.18072,761 c -0.45061,0 -2.31786,-3.4875 -4.14945,-7.75 -1.8316,-4.2625 -3.90996,-9.1 -4.61859,-10.75 -0.70863,-1.65 -2.47687,-6.6 -3.92942,-11 -1.45255,-4.4 -3.22872,-9.35 -3.94704,-11 -1.29927,-2.98448 -1.79496,-4.55 -5.066,-16 -0.94274,-3.3 -2.27015,-7.575 -2.94978,-9.5 -2.01825,-5.71648 -8.43435,-34.52312 -10.57967,-47.5 -1.49442,-9.03963 -2.83149,-39.45428 -2.87947,-65.5 -0.0392,-21.29639 2.29579,-51.70639 5.9124,-77 0.51117,-3.575 1.81554,-13.7 2.89859,-22.5 2.45648,-19.95927 4.21888,-28.19944 10.80094,-50.5 1.37983,-4.675 3.13909,-11.425 3.90945,-15 0.77036,-3.575 1.83552,-7.625 2.367,-9 1.03121,-2.6678 2.99881,-9.85503 6.02279,-22 1.63138,-6.55197 4.94269,-23.54534 6.33292,-32.5 0.25616,-1.65 2.08767,-10.94312 4.07003,-20.65138 1.98235,-9.70825 4.32626,-22.51116 5.20869,-28.4509 0.88243,-5.93974 2.24928,-13.74662 3.03745,-17.34862 4.23409,-19.35025 4.74396,-24.51687 4.81125,-48.7534 0.0602,-21.70462 -0.10927,-24.33811 -1.64143,-25.5 -1.71649,-1.30168 -2.68362,-6.71581 -4.78651,-26.7957 -0.48959,-4.675 -1.42106,-11.2 -2.06992,-14.5 -1.96388,-9.98798 -0.56744,-36.40825 2.52416,-47.7565 3.34127,-12.26469 5.43398,-17.89904 9.56166,-25.7435 1.88113,-3.575 3.93324,-7.625 4.56025,-9 2.54833,-5.588338 13.68587,-19.032908 22.78112,-27.5 5.31723,-4.95 10.22348,-9.184955 10.90277,-9.41101 0.6793,-0.226056 3.57838,-2.138556 6.44239,-4.25 C 346.57132,45.727545 349.16776,44 349.47717,44 c 0.30942,0 2.24113,-1.024341 4.2927,-2.276313 2.05157,-1.251972 7.10513,-3.695361 11.23013,-5.429752 17.90118,-7.526706 22.95517,-9.765689 30.5,-13.511907 10.21594,-5.072497 17.33354,-7.778 20.5,-7.792348 1.375,-0.0062 4.75,-0.717978 7.5,-1.581661 3.5164,-1.104385 12.56634,-1.869567 30.5,-2.578808 31.73909,-1.2552188 50.1816,-0.632737 59,1.991399 9.10359,2.709002 18.77232,6.522748 23.60546,9.310967 34.32743,19.803358 50.04863,32.642087 65.57525,53.552089 3.75061,5.051017 6.81929,9.48155 6.81929,9.84563 0,0.36408 1.0125,2.079842 2.25,3.812805 2.79756,3.917626 6.22476,9.916558 8.65974,15.157899 1.02206,2.2 3.71048,7.96414 5.97428,12.8092 2.26379,4.84506 4.11598,9.05205 4.11598,9.34887 0,0.5095 1.48819,4.03408 4.57782,10.84193 2.67599,5.89642 9.94699,27.96907 14.00001,42.5 1.30397,4.675 3.00866,10.75 3.7882,13.5 2.7174,9.58631 4.65071,19.02577 4.64237,22.66667 -0.005,2.01666 0.343,3.81666 0.7725,4 0.72805,0.31077 2.58284,8.88879 5.80207,26.83333 0.74002,4.125 2.30615,11.1 3.4803,15.5 1.17415,4.4 2.28647,9.35 2.47182,11 0.18535,1.65 0.85378,5.7 1.4854,9 0.63161,3.3 1.37536,8.5875 1.65277,11.75 0.27741,3.1625 0.84985,5.75 1.27208,5.75 0.42224,0 1.07779,4.1625 1.45678,9.25 0.37899,5.0875 1.34175,13.3 2.13946,18.25 0.79771,4.95 1.45219,11.84208 1.4544,15.31574 0.002,3.47366 0.52365,7.28669 1.15876,8.4734 1.96059,3.6634 2.64153,34.58864 1.49091,67.71086 -0.35346,10.175 -0.82776,26.01482 -1.05399,35.1996 -0.22623,9.18478 -0.66628,17.11213 -0.9779,17.61634 -0.63094,1.02087 -0.80867,12.57092 -0.71838,46.68406 0.0335,12.65 -0.36286,25.475 -0.88077,28.5 -0.51791,3.025 -1.43298,13.71362 -2.0335,23.75249 -0.60052,10.03887 -1.70672,20.61387 -2.45821,23.5 -0.7515,2.88613 -1.6556,9.74751 -2.00911,15.24751 -0.35352,5.5 -1.27741,13.6 -2.0531,18 -0.77568,4.4 -1.83448,10.7 -2.35288,14 -0.5184,3.3 -2.14796,10.275 -3.62123,15.5 -1.47328,5.225 -3.08943,11.50646 -3.59144,13.95881 -0.50201,2.45234 -1.35879,4.90484 -1.90395,5.45 C 657.44604,676.95396 657,678.21 657,679.2 c 0,0.99 -0.41045,1.8 -0.9121,1.8 -0.50166,0 -1.21621,1.8 -1.5879,4 -0.37169,2.2 -1.08624,4 -1.5879,4 -0.50165,0 -0.9121,0.78351 -0.9121,1.74114 0,3.93081 -13.53938,28.94082 -21.25312,39.25886 -8.25736,11.0452 -18.67231,23 -20.03746,23 -1.40835,0 -10.68309,10.06984 -13.12485,14.25 -1.52604,2.6125 -3.07515,4.75 -3.44246,4.75 -0.36732,0 -1.11206,0.87411 -1.65498,1.94247 -1.60616,3.16059 -13.34483,22.45258 -14.46058,23.76532 -0.5646,0.66429 -1.02655,1.7484 -1.02655,2.40914 0,0.66073 -1.85988,3.71722 -4.13306,6.7922 -11.23554,15.19851 -37.6757,37.14075 -54.36694,45.1182 -17.51648,8.37186 -34.01314,12.06036 -53.12834,11.87902 C 459.94225,863.85484 440.425,861.87121 422,859.49828 z m 61.52274,0.97537 c 11.44473,-1.69938 21.02695,-4.73477 32.97726,-10.44632 16.69124,-7.97745 43.1314,-29.91969 54.36694,-45.1182 2.27318,-3.07498 4.13306,-6.13147 4.13306,-6.7922 0,-0.66074 0.46195,-1.74485 1.02655,-2.40914 1.11575,-1.31274 12.85442,-20.60473 14.46058,-23.76532 0.54292,-1.06836 1.28766,-1.94247 1.65498,-1.94247 0.36731,0 1.91642,-2.1375 3.44246,-4.75 2.44176,-4.18016 11.7165,-14.25 13.12485,-14.25 1.36515,0 11.7801,-11.9548 20.03746,-23 9.24229,-12.36266 21.62792,-36.518 23.97103,-46.75 0.28338,-1.2375 0.91278,-2.25 1.39867,-2.25 0.48588,0 0.88342,-0.71949 0.88342,-1.59887 0,-0.87938 0.63397,-3.01688 1.40881,-4.75 0.77485,-1.73312 1.64227,-4.27613 1.92761,-5.65113 0.28533,-1.375 2.10629,-9.025 4.04658,-17 4.1831,-17.19349 6.32218,-30.02268 7.1696,-43 0.3412,-5.225 1.22445,-11.83422 1.96279,-14.68716 0.73833,-2.85293 1.62519,-10.05293 1.97079,-16 0.34561,-5.94706 1.25235,-18.46284 2.01499,-27.81284 0.76263,-9.35 1.34038,-18.575 1.28388,-20.5 -0.36131,-12.31006 0.0672,-52.88423 0.66533,-63 0.50544,-8.54809 1.07117,-22.32868 2.09369,-51 0.88633,-24.85297 0.0855,-55.33299 -1.58698,-60.39922 -0.5264,-1.59458 -0.9589,-5.64458 -0.96111,-9 -0.002,-3.35543 -0.65669,-10.15078 -1.4544,-15.10078 -0.79771,-4.95 -1.76047,-13.1625 -2.13946,-18.25 -0.37899,-5.0875 -1.03454,-9.25 -1.45678,-9.25 -0.42223,0 -0.99784,-2.5875 -1.27912,-5.75 -0.28128,-3.1625 -0.95109,-8 -1.48847,-10.75 -0.53737,-2.75 -1.43147,-7.475 -1.98688,-10.5 -0.55541,-3.025 -1.9128,-9.325 -3.01641,-14 -1.10361,-4.675 -2.2411,-9.85 -2.52775,-11.5 -2.31301,-13.31385 -5.27817,-27.05842 -5.89671,-27.33333 -0.4125,-0.18334 -0.75247,-1.98334 -0.75548,-4 -0.007,-4.77315 -6.63329,-31.45462 -12.21021,-49.16667 -3.45089,-10.95991 -8.77137,-26.33778 -10.20649,-29.5 C 629.48819,132.69215 628,129.16757 628,128.65807 c 0,-0.29682 -1.85219,-4.50381 -4.11598,-9.34887 C 621.62022,114.46414 618.9318,108.7 617.90974,106.5 615.47476,101.25866 612.04756,95.259727 609.25,91.342101 608.0125,89.609138 607,87.893376 607,87.529296 c 0,-0.36408 -3.06868,-4.794613 -6.81929,-9.84563 C 584.65409,56.773664 568.93289,43.934935 534.60546,24.131577 523.20135,17.552589 507.32645,13.066641 493,12.374653 c -17.49691,-0.845126 -61.43814,1.129538 -67.5,3.033366 -2.75,0.863683 -6.125,1.57543 -7.5,1.581661 -3.16646,0.01435 -10.28406,2.719851 -20.5,7.792348 -7.54483,3.746218 -12.59882,5.985201 -30.5,13.511907 -4.125,1.734391 -9.17856,4.17778 -11.23013,5.429752 C 353.7183,44.975659 351.78659,46 351.47717,46 c -0.30941,0 -2.90585,1.727545 -5.76987,3.83899 -2.86401,2.111444 -5.76309,4.023944 -6.44239,4.25 -0.67929,0.226055 -5.58554,4.46101 -10.90277,9.41101 -9.09525,8.467092 -20.23279,21.911662 -22.78112,27.5 -0.62701,1.375 -2.67912,5.425 -4.56025,9 -4.11391,7.8183 -6.221,13.48107 -9.51414,25.56907 -3.06646,11.25596 -4.42529,34.48276 -2.57007,43.93093 0.64798,3.3 1.57872,9.825 2.06831,14.5 2.10293,20.08026 3.07,25.49401 4.78651,26.79539 1.53794,1.166 1.70249,3.91299 1.64722,27.5 -0.0619,26.41424 -0.49903,31.01994 -4.81704,50.75371 -0.78817,3.602 -2.15502,11.40888 -3.03745,17.34862 -0.88243,5.93974 -3.22634,18.74265 -5.20869,28.4509 -1.98236,9.70826 -3.81387,19.00138 -4.07003,20.65138 -1.39023,8.95466 -4.70154,25.94803 -6.33292,32.5 -3.02398,12.14497 -4.99158,19.3322 -6.02279,22 -0.53148,1.375 -1.59664,5.425 -2.367,9 -0.77036,3.575 -2.52962,10.325 -3.90945,15 -6.58206,22.30056 -8.34446,30.54073 -10.80094,50.5 -1.08305,8.8 -2.39218,18.925 -2.90918,22.5 -1.07544,7.43669 -3.3292,28.50326 -5.07892,47.4743 -1.64387,17.82333 -0.28795,75.89781 2.12208,90.88973 2.16504,13.46795 8.35966,41.53354 10.51417,47.63597 0.67963,1.925 2.00704,6.2 2.94978,9.5 3.27104,11.45 3.76673,13.01552 5.066,16 0.71832,1.65 2.49449,6.6 3.94704,11 1.45255,4.4 3.22079,9.35 3.92942,11 0.70863,1.65 2.78699,6.4875 4.61859,10.75 1.83159,4.2625 3.69884,7.75 4.14945,7.75 0.4506,0 0.81928,0.89207 0.81928,1.98239 0,2.31649 11.61695,21.56924 17.20729,28.51761 0.4425,0.55 4.01443,5.05 7.93761,10 16.23618,20.48567 33.19373,33.75152 56.8551,44.47758 14.65207,6.64201 24.44731,8.81314 61,13.5207 37.37029,4.81287 44.6853,5.17852 59.52274,2.97537 z"
     id="path2987"
     inkscape:connector-curvature="0" />
</svg>
