<?xml version="1.0" encoding="UTF-8" standalone="no"?>
<!-- Created with Inkscape (http://www.inkscape.org/) -->

<svg
   xmlns:dc="http://purl.org/dc/elements/1.1/"
   xmlns:cc="http://creativecommons.org/ns#"
   xmlns:rdf="http://www.w3.org/1999/02/22-rdf-syntax-ns#"
   xmlns:svg="http://www.w3.org/2000/svg"
   xmlns="http://www.w3.org/2000/svg"
   xmlns:sodipodi="http://sodipodi.sourceforge.net/DTD/sodipodi-0.dtd"
   xmlns:inkscape="http://www.inkscape.org/namespaces/inkscape"
   width="744.09448819"
   height="1052.3622047"
   id="svg2"
   version="1.1"
   inkscape:version="0.48.3.1 r9886"
   sodipodi:docname="New document 1">
  <defs
     id="defs4" />
  <sodipodi:namedview
     id="base"
     pagecolor="#ffffff"
     bordercolor="#666666"
     borderopacity="1.0"
     inkscape:pageopacity="0.0"
     inkscape:pageshadow="2"
     inkscape:zoom="0.35"
     inkscape:cx="375"
     inkscape:cy="514.28571"
     inkscape:document-units="px"
     inkscape:current-layer="layer1"
     showgrid="false"
     inkscape:window-width="927"
     inkscape:window-height="695"
     inkscape:window-x="1"
     inkscape:window-y="91"
     inkscape:window-maximized="0" />
  <metadata
     id="metadata7">
    <rdf:RDF>
      <cc:Work
         rdf:about="">
        <dc:format>image/svg+xml</dc:format>
        <dc:type
           rdf:resource="http://purl.org/dc/dcmitype/StillImage" />
        <dc:title></dc:title>
      </cc:Work>
    </rdf:RDF>
  </metadata>
  <g
     inkscape:label="Layer 1"
     inkscape:groupmode="layer"
     id="layer1">
    <path
       style="fill:#000000"
       d="m 348.14287,910.54694 c -25.72066,-3.82923 -46.22538,-10.95309 -62.31277,-21.64905 -2.68852,-1.7875 -5.11573,-3.25 -5.39381,-3.25 -0.45072,0 -2.85281,-1.8044 -11.2901,-8.4809 -2.71207,-2.14608 -27.02021,-26.50348 -32.95233,-33.0191 -2.00298,-2.2 -4.52135,-5.70882 -5.59639,-7.79737 -1.07503,-2.08856 -3.43831,-5.46356 -5.25174,-7.5 -5.59263,-6.28041 -18.26906,-26.34349 -22.87386,-36.20263 -3.50077,-7.49532 -6.17049,-13.78709 -6.78913,-16 -0.38439,-1.375 -1.32205,-3.88416 -2.08369,-5.57592 -1.48556,-3.29973 -5.64563,-19.41388 -7.33804,-28.42408 -3.36212,-17.89963 -5.88826,-41.83514 -7.17668,-68 -0.44687,-9.075 -1.2945,-19.875 -1.88362,-24 -0.58912,-4.125 -1.48233,-11.42944 -1.98492,-16.23209 -1.39151,-13.29699 -3.97013,-29.10597 -6.67548,-40.92593 -2.63384,-11.50751 -6.8588,-34.95334 -7.90037,-43.84198 -0.98774,-8.42931 -5.48234,-31.95136 -7.06997,-37 -0.7783,-2.475 -1.85333,-9.675 -2.38895,-16 -0.53562,-6.325 -1.48274,-16.45 -2.1047,-22.5 -1.32698,-12.90781 -0.71108,-60.93873 0.93607,-73 1.23956,-9.07668 3.82932,-68.08659 4.6959,-107 0.54111,-24.29848 2.62994,-46.46447 5.41855,-57.5 0.48643,-1.925 1.37252,-6.875 1.96907,-11 3.49404,-24.16029 10.29463,-52.32757 15.13396,-62.68316 1.58922,-3.40073 3.78823,-8.46327 4.88669,-11.25008 6.14863,-15.59922 17.18317,-32.89635 28.2635,-44.30431 9.27539,-9.549663 18.07703,-15.625049 33.0603,-22.820061 9.69665,-4.656365 13.78261,-5.826599 33.20251,-9.509337 4.4,-0.834404 9.8,-1.981169 12,-2.548368 4.08702,-1.053704 8.39107,-1.93947 19,-3.910166 3.3,-0.613002 9.825,-2.21769 14.5,-3.565974 19.67355,-5.673911 57.87768,-7.305408 80.12047,-3.421522 25.19522,4.399416 55.96046,17.42498 78.22127,33.117767 2.28705,1.612251 6.63326,4.592338 9.65826,6.622421 3.025,2.03008 7.95008,5.95944 10.94462,8.73192 10.77289,9.97404 35.46312,35.52182 38.55538,39.8945 10.83041,15.315 12.33485,17.71362 12.42691,19.81304 0.0402,0.91666 0.41059,1.81666 0.82309,2 1.10051,0.48911 4.85149,7.89117 5.62995,11.10996 0.36933,1.52714 1.78494,5.21081 3.14578,8.18592 1.36085,2.97511 2.47427,6.27951 2.47427,7.3431 0,1.06359 0.92046,4.80493 2.04546,8.31408 1.125,3.50915 2.55568,9.64277 3.17929,13.63027 0.6236,3.9875 1.46359,7.25 1.86664,7.25 0.40305,0 1.03692,1.8 1.40861,4 0.37169,2.2 1.03515,4 1.47435,4 0.43921,0 1.11104,2.1375 1.49296,4.75 0.70006,4.78874 1.18781,6.60643 6.02829,22.4651 2.3277,7.62611 4.05554,14.6753 7.4232,30.2849 0.82958,3.84521 6.06374,24.84774 10.09325,40.5 1.06193,4.125 2.80392,12.225 3.87108,18 1.06716,5.775 2.22672,11.85 2.5768,13.5 0.35008,1.65 1.24267,6.15 1.98353,10 0.74087,3.85 2.08428,10.825 2.98536,15.5 3.43582,17.82584 5.56863,31.16838 8.07246,50.5 1.42472,11 2.9895,22.25 3.4773,25 2.98154,16.80866 5.14213,58.98242 4.45706,87 -0.7034,28.76697 -2.84579,52.07222 -6.57282,71.5 -1.91889,10.00256 -5.65865,28.05456 -6.83647,33 -4.74667,19.93031 -7.4144,31.6453 -8.53948,37.5 -2.57778,13.41424 -10.82846,38.28447 -16.25572,49 -5.02759,9.92642 -6.7234,14.26834 -12.2435,31.34811 -2.906,8.99146 -7.3016,20.24146 -9.76799,25 -9.17166,17.69534 -29.83178,43.12004 -44.20264,54.39654 -4.13436,3.24415 -8.34243,6.5693 -9.35126,7.38924 -3.69206,3.00075 -15.01476,9.52564 -26.65944,15.36294 -6.56602,3.29145 -14.51834,7.63493 -17.67182,9.65219 -9.83317,6.2902 -30.29553,15.15693 -43.8345,18.99432 -14.00014,3.9681 -60.90515,6.57744 -76.5,4.25571 z m 59,-3.34797 c 11.90991,-1.69072 16.93257,-2.99017 28.97971,-7.49754 11.43286,-4.27753 23.40488,-9.95872 30.35479,-14.40452 3.15348,-2.01726 11.1058,-6.36074 17.67182,-9.65219 11.64468,-5.8373 22.96738,-12.36219 26.65944,-15.36294 1.00883,-0.81994 5.2169,-4.14509 9.35126,-7.38924 14.37086,-11.2765 35.03098,-36.7012 44.20264,-54.39654 2.46639,-4.75854 6.86199,-16.00854 9.76799,-25 5.5201,-17.07977 7.21591,-21.42169 12.2435,-31.34811 5.42726,-10.71553 13.67794,-35.58576 16.25572,-49 1.12508,-5.8547 3.79281,-17.56969 8.53948,-37.5 0.94684,-3.97561 3.44209,-15.82886 5.05228,-24 0.5961,-3.025 1.46803,-7.3 1.93762,-9.5 6.07422,-28.45736 8.39832,-95.20951 4.49841,-129.20218 -0.83306,-7.2612 -1.51466,-15.01725 -1.51466,-17.23565 0,-2.21841 -0.43791,-5.95243 -0.97312,-8.29782 -0.53522,-2.34539 -2.13027,-13.26435 -3.54456,-24.26435 -2.48165,-19.30171 -4.59768,-32.5704 -8.0535,-50.5 -0.90108,-4.675 -2.24449,-11.65 -2.98536,-15.5 -0.74086,-3.85 -1.63345,-8.35 -1.98353,-10 -0.35008,-1.65 -1.50964,-7.725 -2.5768,-13.5 -1.06716,-5.775 -2.80915,-13.875 -3.87108,-18 -4.02951,-15.65226 -9.26367,-36.65479 -10.09325,-40.5 -3.36766,-15.6096 -5.0955,-22.65879 -7.4232,-30.2849 -4.84048,-15.85867 -5.32823,-17.67636 -6.02829,-22.4651 -0.38192,-2.6125 -1.05375,-4.75 -1.49296,-4.75 -0.4392,0 -1.10266,-1.8 -1.47435,-4 -0.37169,-2.2 -1.03439,-4 -1.47267,-4 -0.43829,0 -1.0986,-2.41486 -1.46737,-5.36636 -0.36876,-2.9515 -1.36129,-7.789 -2.2056,-10.75 -0.84432,-2.961 -2.31635,-8.30864 -3.27117,-11.88364 -0.95482,-3.575 -2.31673,-7.85 -3.02646,-9.5 -0.70974,-1.65 -2.07885,-5.025 -3.04248,-7.5 -3.46268,-8.89362 -4.46483,-11 -5.23349,-11 -0.42942,0 -0.81365,-0.7875 -0.85385,-1.75 -0.0913,-2.18625 -1.51736,-4.46945 -12.42691,-19.89637 -3.09226,-4.37268 -27.78249,-29.92046 -38.55538,-39.8945 -2.99454,-2.77248 -7.91962,-6.70184 -10.94462,-8.73192 -3.025,-2.03008 -7.37121,-5.010173 -9.65826,-6.622421 -22.26081,-15.692787 -53.02605,-28.718351 -78.22127,-33.117767 -21.65644,-3.781501 -56.58936,-2.211309 -76.12047,3.421522 -4.675,1.348284 -11.2,2.952972 -14.5,3.565974 -10.60893,1.970696 -14.91298,2.856462 -19,3.910166 -2.2,0.567199 -7.6,1.713964 -12,2.548368 -19.4199,3.682738 -23.50586,4.852972 -33.20251,9.509337 -14.98327,7.195012 -23.78491,13.270398 -33.0603,22.820061 -11.08033,11.40796 -22.11487,28.70509 -28.2635,44.30431 -1.09846,2.78681 -3.29747,7.84935 -4.88669,11.25008 -4.83933,10.35559 -11.63992,38.52287 -15.13396,62.68316 -0.59655,4.125 -1.48351,9.075 -1.97101,11 -2.81285,11.10712 -4.94636,34.07934 -5.43309,58.5 -0.72207,36.22881 -3.37447,96.41006 -4.67179,106 -1.65497,12.23371 -2.25871,56.26077 -0.94619,69 0.62333,6.05 1.57157,16.175 2.10719,22.5 0.53562,6.325 1.61065,13.525 2.38895,16 1.58763,5.04864 6.08223,28.57069 7.06997,37 1.04157,8.88864 5.26653,32.33447 7.90037,43.84198 2.70535,11.81996 5.28397,27.62894 6.67548,40.92593 0.50259,4.80265 1.3958,12.10709 1.98492,16.23209 0.58912,4.125 1.43675,14.925 1.88362,24 1.28842,26.16486 3.81456,50.10037 7.17668,68 1.69241,9.0102 5.85248,25.12435 7.33804,28.42408 0.76164,1.69176 1.6993,4.20092 2.08369,5.57592 0.61864,2.21291 3.28836,8.50468 6.78913,16 4.6048,9.85914 17.28123,29.92222 22.87386,36.20263 1.81343,2.03644 4.17671,5.41144 5.25174,7.5 1.07504,2.08855 3.59341,5.59737 5.59639,7.79737 5.93212,6.51562 30.24026,30.87302 32.95233,33.0191 8.43729,6.6765 10.83938,8.4809 11.2901,8.4809 0.27808,0 2.70529,1.4625 5.39381,3.25 16.08639,10.69529 36.56769,17.81153 62.31277,21.65062 8.83541,1.31754 44.0927,0.48278 57,-1.34954 z"
       id="path3015"
       inkscape:connector-curvature="0" />
  </g>
</svg>
