Variety,Country of origin,Potato id,Weight (gr),Width (cm),Height (cm),Lot nr,Price (€/kg),Seller url
Nicola,Belgium,B-1,76,5.5,7.8,CST  143514,1.49,http://shop.delhaize.be/fr-be/Fruits-et-legumes/Legumes/Pommes-de-terre/Pommes-de-terre-7C-Nicola/p/F2008121100378520000
Nicola,Belgium,B-2,110,5.9,9.9,CST  143514,1.49,http://shop.delhaize.be/fr-be/Fruits-et-legumes/Legumes/Pommes-de-terre/Pommes-de-terre-7C-Nicola/p/F2008121100378520000
Nicola,Belgium,B-3,68,5.7,7.8,CST  143514,1.49,http://shop.delhaize.be/fr-be/Fruits-et-legumes/Legumes/Pommes-de-terre/Pommes-de-terre-7C-Nicola/p/F2008121100378520000
Nicola,Belgium,B-4,99,5.9,9.3,CST  143514,1.49,http://shop.delhaize.be/fr-be/Fruits-et-legumes/Legumes/Pommes-de-terre/Pommes-de-terre-7C-Nicola/p/F2008121100378520000
Nicola,Belgium,B-5,63,5.1,7.9,CST  143514,1.49,http://shop.delhaize.be/fr-be/Fruits-et-legumes/Legumes/Pommes-de-terre/Pommes-de-terre-7C-Nicola/p/F2008121100378520000
Nicola,Belgium,B-6,75,5.9,7.5,CST  143514,1.49,http://shop.delhaize.be/fr-be/Fruits-et-legumes/Legumes/Pommes-de-terre/Pommes-de-terre-7C-Nicola/p/F2008121100378520000
Nicola,Belgium,B-7,101,5.6,9.1,CST  143514,1.49,http://shop.delhaize.be/fr-be/Fruits-et-legumes/Legumes/Pommes-de-terre/Pommes-de-terre-7C-Nicola/p/F2008121100378520000
Nicola,Belgium,B-8,101,5.9,9,CST  143514,1.49,http://shop.delhaize.be/fr-be/Fruits-et-legumes/Legumes/Pommes-de-terre/Pommes-de-terre-7C-Nicola/p/F2008121100378520000
Nicola,Belgium,B-9,50,4.5,6.4,CST  143514,1.49,http://shop.delhaize.be/fr-be/Fruits-et-legumes/Legumes/Pommes-de-terre/Pommes-de-terre-7C-Nicola/p/F2008121100378520000
Nicola,Belgium,B-10,74,5.1,8.7,CST  143514,1.49,http://shop.delhaize.be/fr-be/Fruits-et-legumes/Legumes/Pommes-de-terre/Pommes-de-terre-7C-Nicola/p/F2008121100378520000
Princess,Netherlands,D-1,37,4.6,5.3,14850,2.59,http://shop.delhaize.be/fr-be/Fruits-et-legumes/Legumes/Pommes-de-terre/Pommes-de-terre-grenailles-7C-Emballe-7C-Bio/p/F2009112400397840000
Princess,Netherlands,D-2,25,3.8,5.3,14850,2.59,http://shop.delhaize.be/fr-be/Fruits-et-legumes/Legumes/Pommes-de-terre/Pommes-de-terre-grenailles-7C-Emballe-7C-Bio/p/F2009112400397840000
Princess,Netherlands,D-3,14,3.3,5.7,14850,2.59,http://shop.delhaize.be/fr-be/Fruits-et-legumes/Legumes/Pommes-de-terre/Pommes-de-terre-grenailles-7C-Emballe-7C-Bio/p/F2009112400397840000
Princess,Netherlands,D-4,23,3.8,5.3,14850,2.59,http://shop.delhaize.be/fr-be/Fruits-et-legumes/Legumes/Pommes-de-terre/Pommes-de-terre-grenailles-7C-Emballe-7C-Bio/p/F2009112400397840000
Princess,Netherlands,D-5,29,4.3,6,14850,2.59,http://shop.delhaize.be/fr-be/Fruits-et-legumes/Legumes/Pommes-de-terre/Pommes-de-terre-grenailles-7C-Emballe-7C-Bio/p/F2009112400397840000
Princess,Netherlands,D-6,20,3.8,4.9,14850,2.59,http://shop.delhaize.be/fr-be/Fruits-et-legumes/Legumes/Pommes-de-terre/Pommes-de-terre-grenailles-7C-Emballe-7C-Bio/p/F2009112400397840000
Princess,Netherlands,D-7,24,3.8,4.6,14850,2.59,http://shop.delhaize.be/fr-be/Fruits-et-legumes/Legumes/Pommes-de-terre/Pommes-de-terre-grenailles-7C-Emballe-7C-Bio/p/F2009112400397840000
Princess,Netherlands,D-8,16,3.7,4,14850,2.59,http://shop.delhaize.be/fr-be/Fruits-et-legumes/Legumes/Pommes-de-terre/Pommes-de-terre-grenailles-7C-Emballe-7C-Bio/p/F2009112400397840000
Princess,Netherlands,D-9,21,3.8,5.2,14850,2.59,http://shop.delhaize.be/fr-be/Fruits-et-legumes/Legumes/Pommes-de-terre/Pommes-de-terre-grenailles-7C-Emballe-7C-Bio/p/F2009112400397840000
Princess,Netherlands,D-10,18,3.9,4.8,14850,2.59,http://shop.delhaize.be/fr-be/Fruits-et-legumes/Legumes/Pommes-de-terre/Pommes-de-terre-grenailles-7C-Emballe-7C-Bio/p/F2009112400397840000
Jazzy,France,F-1,94,4.5,10.2,CST 1436002,1.89,http://shop.delhaize.be/fr-be/Fruits-et-legumes/Legumes/Pommes-de-terre/Pommes-de-terre-7C-Emballe/p/F2009112500381030000
Jazzy,France,F-2,71,5.3,7.7,CST 1436002,1.89,http://shop.delhaize.be/fr-be/Fruits-et-legumes/Legumes/Pommes-de-terre/Pommes-de-terre-7C-Emballe/p/F2009112500381030000
Jazzy,France,F-3,51,4.5,8.4,CST 1436002,1.89,http://shop.delhaize.be/fr-be/Fruits-et-legumes/Legumes/Pommes-de-terre/Pommes-de-terre-7C-Emballe/p/F2009112500381030000
Jazzy,France,F-4,54,4.9,7.6,CST 1436002,1.89,http://shop.delhaize.be/fr-be/Fruits-et-legumes/Legumes/Pommes-de-terre/Pommes-de-terre-7C-Emballe/p/F2009112500381030000
Jazzy,France,F-5,77,5.2,9.8,CST 1436002,1.89,http://shop.delhaize.be/fr-be/Fruits-et-legumes/Legumes/Pommes-de-terre/Pommes-de-terre-7C-Emballe/p/F2009112500381030000
Jazzy,France,F-6,58,4.9,7.8,CST 1436002,1.89,http://shop.delhaize.be/fr-be/Fruits-et-legumes/Legumes/Pommes-de-terre/Pommes-de-terre-7C-Emballe/p/F2009112500381030000
Jazzy,France,F-7,50,5,7.1,CST 1436002,1.89,http://shop.delhaize.be/fr-be/Fruits-et-legumes/Legumes/Pommes-de-terre/Pommes-de-terre-7C-Emballe/p/F2009112500381030000
Jazzy,France,F-8,114,5.8,9.9,CST 1436002,1.89,http://shop.delhaize.be/fr-be/Fruits-et-legumes/Legumes/Pommes-de-terre/Pommes-de-terre-7C-Emballe/p/F2009112500381030000
Jazzy,France,F-9,72,4.9,8,CST 1436002,1.89,http://shop.delhaize.be/fr-be/Fruits-et-legumes/Legumes/Pommes-de-terre/Pommes-de-terre-7C-Emballe/p/F2009112500381030000
Jazzy,France,F-10,56,4.8,6.4,CST 1436002,1.89,http://shop.delhaize.be/fr-be/Fruits-et-legumes/Legumes/Pommes-de-terre/Pommes-de-terre-7C-Emballe/p/F2009112500381030000
