﻿"eliot","THE WASTE LAND"
"eliot","By T. S. Eliot"
"eliot",""" Nam Sibyllam quidem Cumis ego ipse oculis meis vidi in ampulla pendere , et cum illi pueri dicerent : Sibylla ti theleis ; respondebat illa : apothanein thelo ."
"eliot",""""
"eliot","I. THE BURIAL OF THE DEAD"
"eliot","April is the cruellest month , breeding Lilacs out of the dead land , mixing Memory and desire , stirring Dull roots with spring rain ."
"eliot","Winter kept us warm , covering Earth in forgetful snow , feeding A little life with dried tubers ."
"eliot","Summer surprised us , coming over the Starnbergersee With a shower of rain ; we stopped in the colonnade , And went on in sunlight , into the Hofgarten , 10 And drank coffee , and talked for an hour ."
"eliot","Bin gar keine Russin , stamm ' aus Litauen , echt deutsch ."
"eliot","And when we were children , staying at the archduke ' s , My cousin ' s , he took me out on a sled , And I was frightened ."
"eliot","He said , Marie , Marie , hold on tight ."
"eliot","And down we went ."
"eliot","In the mountains , there you feel free ."
"eliot","I read , much of the night , and go south in the winter ."
"eliot","What are the roots that clutch , what branches grow Out of this stony rubbish ?"
"eliot","Son of man , 20 You cannot say , or guess , for you know only A heap of broken images , where the sun beats , And the dead tree gives no shelter , the cricket no relief , And the dry stone no sound of water ."
"eliot","Only There is shadow under this red rock , ( Come in under the shadow of this red rock ) , And I will show you something different from either Your shadow at morning striding behind you Or your shadow at evening rising to meet you ; I will show you fear in a handful of dust ."
"eliot","30 Frisch weht der Wind Der Heimat zu Mein Irisch Kind , Wo weilest du ?"
"eliot",""" You gave me hyacinths first a year ago ; "" They called me the hyacinth girl ."
"eliot",""" - - Yet when we came back , late , from the Hyacinth garden , Your arms full , and your hair wet , I could not Speak , and my eyes failed , I was neither Living nor dead , and I knew nothing , 40 Looking into the heart of light , the silence ."
"eliot","Od ' und leer das Meer ."
"eliot","Madame Sosostris , famous clairvoyante , Had a bad cold , nevertheless Is known to be the wisest woman in Europe , With a wicked pack of cards ."
"eliot","Here , said she , Is your card , the drowned Phoenician Sailor , ( Those are pearls that were his eyes ."
"eliot","Look ! )"
"eliot","Here is Belladonna , the Lady of the Rocks , The lady of situations ."
"eliot","50 Here is the man with three staves , and here the Wheel , And here is the one-eyed merchant , and this card , Which is blank , is something he carries on his back , Which I am forbidden to see ."
"eliot","I do not find The Hanged Man ."
"eliot","Fear death by water ."
"eliot","I see crowds of people , walking round in a ring ."
"eliot","Thank you ."
"eliot","If you see dear Mrs. Equitone , Tell her I bring the horoscope myself : One must be so careful these days ."
"eliot","Unreal City , 60 Under the brown fog of a winter dawn , A crowd flowed over London Bridge , so many , I had not thought death had undone so many ."
"eliot","Sighs , short and infrequent , were exhaled , And each man fixed his eyes before his feet ."
"eliot","Flowed up the hill and down King William Street , To where Saint Mary Woolnoth kept the hours With a dead sound on the final stroke of nine ."
"eliot","There I saw one I knew , and stopped him , crying "" Stetson !"
"eliot",""" You who were with me in the ships at Mylae !"
"eliot","70 "" That corpse you planted last year in your garden , "" Has it begun to sprout ?"
"eliot","Will it bloom this year ?"
"eliot",""" Or has the sudden frost disturbed its bed ?"
"eliot","Line 42 Od ' ] Oed ' - - Editor ."
"eliot",""" Oh keep the Dog far hence , that 's friend to men , "" Or with his nails he 'll dig it up again !"
"eliot",""" You !"
"eliot","hypocrite lecteur !"
"eliot","- - mon semblable , - - mon frere !"
"eliot",""""
"eliot","II ."
"eliot","A GAME OF CHESS"
"eliot","The Chair she sat in , like a burnished throne , Glowed on the marble , where the glass Held up by standards wrought with fruited vines From which a golden Cupidon peeped out 80 ( Another hid his eyes behind his wing ) Doubled the flames of sevenbranched candelabra Reflecting light upon the table as The glitter of her jewels rose to meet it , From satin cases poured in rich profusion ; In vials of ivory and coloured glass Unstoppered , lurked her strange synthetic perfumes , Unguent , powdered , or liquid - - troubled , confused And drowned the sense in odours ; stirred by the air That freshened from the window , these ascended 90 In fattening the prolonged candle-flames , Flung their smoke into the laquearia , Stirring the pattern on the coffered ceiling ."
"eliot","Huge sea-wood fed with copper Burned green and orange , framed by the coloured stone , In which sad light a carved dolphin swam ."
"eliot","Above the antique mantel was displayed As though a window gave upon the sylvan scene The change of Philomel , by the barbarous king So rudely forced ; yet there the nightingale 100 Filled all the desert with inviolable voice And still she cried , and still the world pursues , "" Jug Jug "" to dirty ears ."
"eliot","And other withered stumps of time Were told upon the walls ; staring forms Leaned out , leaning , hushing the room enclosed ."
"eliot","Footsteps shuffled on the stair ."
"eliot","Under the firelight , under the brush , her hair Spread out in fiery points Glowed into words , then would be savagely still ."
"eliot","110"
"eliot",""" My nerves are bad to-night ."
"eliot","Yes , bad ."
"eliot","Stay with me ."
"eliot",""" Speak to me ."
"eliot","Why do you never speak ."
"eliot","Speak ."
"eliot",""" What are you thinking of ?"
"eliot","What thinking ?"
"eliot","What ?"
"eliot",""" I never know what you are thinking ."
"eliot","Think ."
"eliot",""""
"eliot","I think we are in rats ' alley Where the dead men lost their bones ."
"eliot",""" What is that noise ?"
"eliot",""" The wind under the door ."
"eliot",""" What is that noise now ?"
"eliot","What is the wind doing ?"
"eliot",""" Nothing again nothing ."
"eliot","120 "" Do "" You know nothing ?"
"eliot","Do you see nothing ?"
"eliot","Do you remember "" Nothing ?"
"eliot",""""
"eliot","I remember Those are pearls that were his eyes ."
"eliot",""" Are you alive , or not ?"
"eliot","Is there nothing in your head ?"
"eliot",""" But O O O O that Shakespeherian Rag - - It 's so elegant So intelligent 130 "" What shall I do now ?"
"eliot","What shall I do ?"
"eliot",""" I shall rush out as I am , and walk the street "" With my hair down , so ."
"eliot","What shall we do to-morrow ?"
"eliot",""" What shall we ever do ?"
"eliot",""" The hot water at ten ."
"eliot","And if it rains , a closed car at four ."
"eliot","And we shall play a game of chess , Pressing lidless eyes and waiting for a knock upon the door ."
"eliot","When Lil 's husband got demobbed , I said - - I did n't mince my words , I said to her myself , 140 HURRY UP PLEASE ITS TIME Now Albert 's coming back , make yourself a bit smart ."
"eliot","He 'll want to know what you done with that money he gave you To get yourself some teeth ."
"eliot","He did , I was there ."
"eliot","You have them all out , Lil , and get a nice set , He said , I swear , I ca n't bear to look at you ."
"eliot","And no more ca n't I , I said , and think of poor Albert , He 's been in the army four years , he wants a good time , And if you do n't give it him , there 's others will , I said ."
"eliot","Oh is there , she said ."
"eliot","Something o ' that , I said ."
"eliot","150 Then I 'll know who to thank , she said , and give me a straight look ."
"eliot","HURRY UP PLEASE ITS TIME If you do n't like it you can get on with it , I said ."
"eliot","Others can pick and choose if you ca n't ."
"eliot","But if Albert makes off , it wo n't be for lack of telling ."
"eliot","You ought to be ashamed , I said , to look so antique ."
"eliot","( And her only thirty-one . )"
"eliot","I ca n't help it , she said , pulling a long face , It 's them pills I took , to bring it off , she said ."
"eliot","( She 's had five already , and nearly died of young George . )"
"eliot","160 The chemist said it would be alright , but I 've never been the same ."
"eliot","You are a proper fool , I said ."
"eliot","Well , if Albert wo n't leave you alone , there it is , I said , What you get married for if you do n't want children ?"
"eliot","HURRY UP PLEASE ITS TIME Well , that Sunday Albert was home , they had a hot gammon , And they asked me in to dinner , to get the beauty of it hot - - HURRY UP PLEASE ITS TIME HURRY UP PLEASE ITS TIME Goonight Bill ."
"eliot","Goonight Lou ."
"eliot","Goonight May ."
"eliot","Goonight ."
"eliot","170 Ta ta ."
"eliot","Goonight ."
"eliot","Goonight ."
"eliot","Good night , ladies , good night , sweet ladies , good night , good night ."
"eliot","III ."
"eliot","THE FIRE SERMON"
"eliot","The river 's tent is broken : the last fingers of leaf Clutch and sink into the wet bank ."
"eliot","The wind Crosses the brown land , unheard ."
"eliot","The nymphs are departed ."
"eliot","Sweet Thames , run softly , till I end my song ."
"eliot","The river bears no empty bottles , sandwich papers , Silk handkerchiefs , cardboard boxes , cigarette ends Or other testimony of summer nights ."
"eliot","The nymphs are departed ."
"eliot","And their friends , the loitering heirs of city directors ; 180 Departed , have left no addresses ."
"eliot","Line 161 ALRIGHT ."
"eliot","This spelling occurs also in the Hogarth Press edition - - Editor ."
"eliot","By the waters of Leman I sat down and wept . . ."
"eliot","Sweet Thames , run softly till I end my song , Sweet Thames , run softly , for I speak not loud or long ."
"eliot","But at my back in a cold blast I hear The rattle of the bones , and chuckle spread from ear to ear ."
"eliot","A rat crept softly through the vegetation Dragging its slimy belly on the bank While I was fishing in the dull canal On a winter evening round behind the gashouse 190 Musing upon the king my brother 's wreck And on the king my father 's death before him ."
"eliot","White bodies naked on the low damp ground And bones cast in a little low dry garret , Rattled by the rat 's foot only , year to year ."
"eliot","But at my back from time to time I hear The sound of horns and motors , which shall bring Sweeney to Mrs. Porter in the spring ."
"eliot","O the moon shone bright on Mrs. Porter And on her daughter 200 They wash their feet in soda water Et O ces voix d'enfants , chantant dans la coupole !"
"eliot","Twit twit twit Jug jug jug jug jug jug So rudely forc ' d. Tereu"
"eliot","Unreal City Under the brown fog of a winter noon Mr. Eugenides , the Smyrna merchant Unshaven , with a pocket full of currants 210 C.i.f. London : documents at sight , Asked me in demotic French To luncheon at the Cannon Street Hotel Followed by a weekend at the Metropole ."
"eliot","At the violet hour , when the eyes and back Turn upward from the desk , when the human engine waits Like a taxi throbbing waiting , I Tiresias , though blind , throbbing between two lives , Old man with wrinkled female breasts , can see At the violet hour , the evening hour that strives 220 Homeward , and brings the sailor home from sea , The typist home at teatime , clears her breakfast , lights Her stove , and lays out food in tins ."
"eliot","Out of the window perilously spread Her drying combinations touched by the sun 's last rays , On the divan are piled ( at night her bed ) Stockings , slippers , camisoles , and stays ."
"eliot","I Tiresias , old man with wrinkled dugs Perceived the scene , and foretold the rest - - I too awaited the expected guest ."
"eliot","230 He , the young man carbuncular , arrives , A small house agent 's clerk , with one bold stare , One of the low on whom assurance sits As a silk hat on a Bradford millionaire ."
"eliot","The time is now propitious , as he guesses , The meal is ended , she is bored and tired , Endeavours to engage her in caresses Which still are unreproved , if undesired ."
"eliot","Flushed and decided , he assaults at once ; Exploring hands encounter no defence ; 240 His vanity requires no response , And makes a welcome of indifference ."
"eliot","( And I Tiresias have foresuffered all Enacted on this same divan or bed ; I who have sat by Thebes below the wall And walked among the lowest of the dead . )"
"eliot","Bestows one final patronising kiss , And gropes his way , finding the stairs unlit . . ."
"eliot","She turns and looks a moment in the glass , Hardly aware of her departed lover ; 250 Her brain allows one half-formed thought to pass : "" Well now that 's done : and I 'm glad it 's over ."
"eliot",""" When lovely woman stoops to folly and Paces about her room again , alone , She smoothes her hair with automatic hand , And puts a record on the gramophone ."
"eliot",""" This music crept by me upon the waters "" And along the Strand , up Queen Victoria Street ."
"eliot","O City city , I can sometimes hear Beside a public bar in Lower Thames Street , 260 The pleasant whining of a mandoline And a clatter and a chatter from within Where fishmen lounge at noon : where the walls Of Magnus Martyr hold Inexplicable splendour of Ionian white and gold ."
"eliot","The river sweats Oil and tar The barges drift With the turning tide Red sails 270 Wide To leeward , swing on the heavy spar ."
"eliot","The barges wash Drifting logs Down Greenwich reach Past the Isle of Dogs ."
"eliot","Weialala leia Wallala leialala"
"eliot","Elizabeth and Leicester Beating oars 280 The stern was formed A gilded shell Red and gold The brisk swell Rippled both shores Southwest wind Carried down stream The peal of bells White towers Weialala leia 290 Wallala leialala"
"eliot",""" Trams and dusty trees ."
"eliot","Highbury bore me ."
"eliot","Richmond and Kew Undid me ."
"eliot","By Richmond I raised my knees Supine on the floor of a narrow canoe ."
"eliot",""""
"eliot",""" My feet are at Moorgate , and my heart Under my feet ."
"eliot","After the event He wept ."
"eliot","He promised ' a new start ' ."
"eliot","I made no comment ."
"eliot","What should I resent ?"
"eliot",""" "" On Margate Sands ."
"eliot","300 I can connect Nothing with nothing ."
"eliot","The broken fingernails of dirty hands ."
"eliot","My people humble people who expect Nothing ."
"eliot",""" la la"
"eliot","To Carthage then I came"
"eliot","Burning burning burning burning O Lord Thou pluckest me out O Lord Thou pluckest 310"
"eliot","burning"
"eliot","IV ."
"eliot","DEATH BY WATER"
"eliot","Phlebas the Phoenician , a fortnight dead , Forgot the cry of gulls , and the deep sea swell And the profit and loss ."
"eliot","A current under sea Picked his bones in whispers ."
"eliot","As he rose and fell He passed the stages of his age and youth Entering the whirlpool ."
"eliot","Gentile or Jew O you who turn the wheel and look to windward , 320 Consider Phlebas , who was once handsome and tall as you ."
"eliot","V. WHAT THE THUNDER SAID"
"eliot","After the torchlight red on sweaty faces After the frosty silence in the gardens After the agony in stony places The shouting and the crying Prison and palace and reverberation Of thunder of spring over distant mountains He who was living is now dead We who were living are now dying With a little patience 330"
"eliot","Here is no water but only rock Rock and no water and the sandy road The road winding above among the mountains Which are mountains of rock without water If there were water we should stop and drink Amongst the rock one cannot stop or think Sweat is dry and feet are in the sand If there were only water amongst the rock Dead mountain mouth of carious teeth that cannot spit Here one can neither stand nor lie nor sit 340 There is not even silence in the mountains But dry sterile thunder without rain There is not even solitude in the mountains But red sullen faces sneer and snarl From doors of mudcracked houses If there were water And no rock If there were rock And also water And water 350 A spring A pool among the rock If there were the sound of water only Not the cicada And dry grass singing But sound of water over a rock Where the hermit-thrush sings in the pine trees Drip drop drip drop drop drop drop But there is no water"
"eliot","Who is the third who walks always beside you ?"
"eliot","360 When I count , there are only you and I together But when I look ahead up the white road There is always another one walking beside you Gliding wrapt in a brown mantle , hooded I do not know whether a man or a woman - - But who is that on the other side of you ?"
"eliot","What is that sound high in the air Murmur of maternal lamentation Who are those hooded hordes swarming Over endless plains , stumbling in cracked earth 370 Ringed by the flat horizon only What is the city over the mountains Cracks and reforms and bursts in the violet air Falling towers Jerusalem Athens Alexandria Vienna London Unreal"
"eliot","A woman drew her long black hair out tight And fiddled whisper music on those strings And bats with baby faces in the violet light 380 Whistled , and beat their wings And crawled head downward down a blackened wall And upside down in air were towers Tolling reminiscent bells , that kept the hours And voices singing out of empty cisterns and exhausted wells ."
"eliot","In this decayed hole among the mountains In the faint moonlight , the grass is singing Over the tumbled graves , about the chapel There is the empty chapel , only the wind 's home ."
"eliot","It has no windows , and the door swings , 390 Dry bones can harm no one ."
"eliot","Only a cock stood on the rooftree Co co rico co co rico In a flash of lightning ."
"eliot","Then a damp gust Bringing rain"
"eliot","Ganga was sunken , and the limp leaves Waited for rain , while the black clouds Gathered far distant , over Himavant ."
"eliot","The jungle crouched , humped in silence ."
"eliot","Then spoke the thunder 400 DA Datta : what have we given ?"
"eliot","My friend , blood shaking my heart The awful daring of a moment 's surrender Which an age of prudence can never retract By this , and this only , we have existed Which is not to be found in our obituaries Or in memories draped by the beneficent spider Or under seals broken by the lean solicitor In our empty rooms 410 DA Dayadhvam : I have heard the key Turn in the door once and turn once only We think of the key , each in his prison Thinking of the key , each confirms a prison Only at nightfall , aetherial rumours Revive for a moment a broken Coriolanus DA Damyata : The boat responded Gaily , to the hand expert with sail and oar 420 The sea was calm , your heart would have responded Gaily , when invited , beating obedient To controlling hands"
"eliot","I sat upon the shore Fishing , with the arid plain behind me Shall I at least set my lands in order ?"
"eliot","London Bridge is falling down falling down falling down Poi s'ascose nel foco che gli affina Quando fiam ceu chelidon - - O swallow swallow Le Prince d'Aquitaine a la tour abolie 430 These fragments I have shored against my ruins Why then Ile fit you ."
"eliot","Hieronymo 's mad againe ."
"eliot","Datta ."
"eliot","Dayadhvam ."
"eliot","Damyata ."
"eliot","Shantih shantih shantih"
"eliot","Line 416 aetherial ] aethereal Line 429 ceu ] uti - - Editor"
"eliot","NOTES ON "" THE WASTE LAND """
"eliot","Not only the title , but the plan and a good deal of the incidental symbolism of the poem were suggested by Miss Jessie L. Weston 's book on the Grail legend : From Ritual to Romance ( Macmillan).<1> Indeed , so deeply am I indebted , Miss Weston 's book will elucidate the difficulties of the poem much better than my notes can do ; and I recommend it ( apart from the great interest of the book itself ) to any who think such elucidation of the poem worth the trouble ."
"eliot","To another work of anthropology I am indebted in general , one which has influenced our generation profoundly ; I mean The Golden Bough ; I have used especially the two volumes Adonis , Attis , Osiris ."
"eliot","Anyone who is acquainted with these works will immediately recognise in the poem certain references to vegetation ceremonies ."
"eliot","<1> Macmillan ] Cambridge ."
"eliot","I. THE BURIAL OF THE DEAD"
"eliot","Line 20 ."
"eliot","Cf. Ezekiel 2:1 ."
"eliot","23 ."
"eliot","Cf. Ecclesiastes 12:5 ."
"eliot","31 ."
"eliot","V. Tristan und Isolde , i , verses 5-8 ."
"eliot","42 ."
"eliot","Id. iii , verse 24 ."
"eliot","46 ."
"eliot","I am not familiar with the exact constitution of the Tarot pack of cards , from which I have obviously departed to suit my own convenience ."
"eliot","The Hanged Man , a member of the traditional pack , fits my purpose in two ways : because he is associated in my mind with the Hanged God of Frazer , and because I associate him with the hooded figure in the passage of the disciples to Emmaus in Part V. The Phoenician Sailor and the Merchant appear later ; also the "" crowds of people , "" and Death by Water is executed in Part IV ."
"eliot","The Man with Three Staves ( an authentic member of the Tarot pack ) I associate , quite arbitrarily , with the Fisher King himself ."
"eliot","60 ."
"eliot","Cf. Baudelaire :"
"eliot",""" Fourmillante cite ; , cite ; pleine de reves , Ou le spectre en plein jour raccroche le passant ."
"eliot",""""
"eliot","63 ."
"eliot","Cf. Inferno , iii ."
"eliot","55-7 ."
"eliot",""" si lunga tratta di gente , ch'io non avrei mai creduto che morte tanta n'avesse disfatta ."
"eliot",""""
"eliot","64 ."
"eliot","Cf. Inferno , iv ."
"eliot","25-7 :"
"eliot",""" Quivi , secondo che per ascoltare , "" non avea pianto , ma ' che di sospiri , "" che l'aura eterna facevan tremare ."
"eliot",""""
"eliot","68 ."
"eliot","A phenomenon which I have often noticed ."
"eliot","74 ."
"eliot","Cf. the Dirge in Webster 's White Devil ."
"eliot","76 ."
"eliot","V. Baudelaire , Preface to Fleurs du Mal ."
"eliot","II ."
"eliot","A GAME OF CHESS"
"eliot","77 ."
"eliot","Cf. Antony and Cleopatra , II ."
"eliot","ii ."
"eliot",", l. 190 ."
"eliot","92 ."
"eliot","Laquearia ."
"eliot","V. Aeneid , I. 726 :"
"eliot","dependent lychni laquearibus aureis incensi , et noctem flammis funalia vincunt ."
"eliot","98 ."
"eliot","Sylvan scene ."
"eliot","V. Milton , Paradise Lost , iv ."
"eliot","140 ."
"eliot","99 ."
"eliot","V. Ovid , Metamorphoses , vi , Philomela ."
"eliot","100 ."
"eliot","Cf. Part III , l. 204 ."
"eliot","115 ."
"eliot","Cf. Part III , l. 195 ."
"eliot","118 ."
"eliot","Cf. Webster : "" Is the wind in that door still ?"
"eliot",""""
"eliot","126 ."
"eliot","Cf. Part I , l. 37 , 48 ."
"eliot","138 ."
"eliot","Cf. the game of chess in Middleton 's Women beware Women ."
"eliot","III ."
"eliot","THE FIRE SERMON"
"eliot","176 ."
"eliot","V. Spenser , Prothalamion ."
"eliot","192 ."
"eliot","Cf. The Tempest , I. ii ."
"eliot","196 ."
"eliot","Cf. Marvell , To His Coy Mistress ."
"eliot","197 ."
"eliot","Cf. Day , Parliament of Bees :"
"eliot",""" When of the sudden , listening , you shall hear , "" A noise of horns and hunting , which shall bring "" Actaeon to Diana in the spring , "" Where all shall see her naked skin . . ."
"eliot",""""
"eliot","199 ."
"eliot","I do not know the origin of the ballad from which these lines are taken : it was reported to me from Sydney , Australia ."
"eliot","202 ."
"eliot","V. Verlaine , Parsifal ."
"eliot","210 ."
"eliot","The currants were quoted at a price "" carriage and insurance free to London "" ; and the Bill of Lading etc. were to be handed to the buyer upon payment of the sight draft ."
"eliot","Notes 196 and 197 were transposed in this and the Hogarth Press edition , but have been corrected here ."
"eliot","210 ."
"eliot",""" Carriage and insurance free "" ] "" cost , insurance and freight""-Editor ."
"eliot","218 ."
"eliot","Tiresias , although a mere spectator and not indeed a "" character , "" is yet the most important personage in the poem , uniting all the rest ."
"eliot","Just as the one-eyed merchant , seller of currants , melts into the Phoenician Sailor , and the latter is not wholly distinct from Ferdinand Prince of Naples , so all the women are one woman , and the two sexes meet in Tiresias ."
"eliot","What Tiresias sees , in fact , is the substance of the poem ."
"eliot","The whole passage from Ovid is of great anthropological interest :"
"eliot","' . . ."
"eliot","Cum Iunone iocos et maior vestra profecto est Quam , quae contingit maribus , ' dixisse , ' voluptas ."
"eliot","' Illa negat ; placuit quae sit sententia docti Quaerere Tiresiae : venus huic erat utraque nota ."
"eliot","Nam duo magnorum viridi coeuntia silva Corpora serpentum baculi violaverat ictu Deque viro factus , mirabile , femina septem Egerat autumnos ; octavo rursus eosdem Vidit et ' est vestrae si tanta potentia plagae , ' Dixit ' ut auctoris sortem in contraria mutet , Nunc quoque vos feriam !"
"eliot","' percussis anguibus isdem Forma prior rediit genetivaque venit imago ."
"eliot","Arbiter hic igitur sumptus de lite iocosa Dicta Iovis firmat ; gravius Saturnia iusto Nec pro materia fertur doluisse suique Iudicis aeterna damnavit lumina nocte , At pater omnipotens ( neque enim licet inrita cuiquam Facta dei fecisse deo ) pro lumine adempto Scire futura dedit poenamque levavit honore ."
"eliot","221 ."
"eliot","This may not appear as exact as Sappho 's lines , but I had in mind the "" longshore "" or "" dory "" fisherman , who returns at nightfall ."
"eliot","253 ."
"eliot","V. Goldsmith , the song in The Vicar of Wakefield ."
"eliot","257 ."
"eliot","V. The Tempest , as above ."
"eliot","264 ."
"eliot","The interior of St. Magnus Martyr is to my mind one of the finest among Wren 's interiors ."
"eliot","See The Proposed Demolition of Nineteen City Churches ( P. S. King & Son , Ltd. ) ."
"eliot","266 ."
"eliot","The Song of the ( three ) Thames-daughters begins here ."
"eliot","From line 292 to 306 inclusive they speak in turn ."
"eliot","V. Gutterdsammerung , III ."
"eliot","i : the Rhine-daughters ."
"eliot","279 ."
"eliot","V. Froude , Elizabeth , Vol ."
"eliot","I , ch ."
"eliot","iv , letter of De Quadra to Philip of Spain :"
"eliot",""" In the afternoon we were in a barge , watching the games on the river ."
"eliot","( The queen ) was alone with Lord Robert and myself on the poop , when they began to talk nonsense , and went so far that Lord Robert at last said , as I was on the spot there was no reason why they should not be married if the queen pleased ."
"eliot",""""
"eliot","293 ."
"eliot","Cf. Purgatorio , v. 133 :"
"eliot",""" Ricorditi di me , che son la Pia ; Siena mi fe ' , disfecemi Maremma ."
"eliot",""""
"eliot","307 ."
"eliot","V. St. Augustine 's Confessions : "" to Carthage then I came , where a cauldron of unholy loves sang all about mine ears ."
"eliot",""""
"eliot","308 ."
"eliot","The complete text of the Buddha 's Fire Sermon ( which corresponds in importance to the Sermon on the Mount ) from which these words are taken , will be found translated in the late Henry Clarke Warren 's Buddhism in Translation ( Harvard Oriental Series ) ."
"eliot","Mr. Warren was one of the great pioneers of Buddhist studies in the Occident ."
"eliot","309 ."
"eliot","From St. Augustine 's Confessions again ."
"eliot","The collocation of these two representatives of eastern and western asceticism , as the culmination of this part of the poem , is not an accident ."
"eliot","V. WHAT THE THUNDER SAID"
"eliot","In the first part of Part V three themes are employed : the journey to Emmaus , the approach to the Chapel Perilous ( see Miss Weston 's book ) and the present decay of eastern Europe ."
"eliot","357 ."
"eliot","This is Turdus aonalaschkae pallasii , the hermit-thrush which I have heard in Quebec County ."
"eliot","Chapman says ( Handbook of Birds of Eastern North America ) "" it is most at home in secluded woodland and thickety retreats . . . ."
"eliot","Its notes are not remarkable for variety or volume , but in purity and sweetness of tone and exquisite modulation they are unequalled ."
"eliot",""" Its "" water-dripping song "" is justly celebrated ."
"eliot","360 ."
"eliot","The following lines were stimulated by the account of one of the Antarctic expeditions ( I forget which , but I think one of Shackleton ' s ) : it was related that the party of explorers , at the extremity of their strength , had the constant delusion that there was one more member than could actually be counted ."
"eliot","367-77 ."
"eliot","Cf. Hermann Hesse , Blick ins Chaos :"
"eliot",""" Schon ist halb Europa , schon ist zumindest der halbe Osten Europas auf dem Wege zum Chaos , fährt betrunken im heiligem Wahn am Abgrund entlang und singt dazu , singt betrunken und hymnisch wie Dmitri Karamasoff sang ."
"eliot","Ueber diese Lieder lacht der Bürger beleidigt , der Heilige und Seher hört sie mit Tränen ."
"eliot",""""
"eliot","402 ."
"eliot",""" Datta , dayadhvam , damyata "" ( Give , sympathize , control ) ."
"eliot","The fable of the meaning of the Thunder is found in the Brihadaranyaka-Upanishad , 5 , 1 ."
"eliot","A translation is found in Deussen 's Sechzig Upanishads des Veda , p. 489 ."
"eliot","408 ."
"eliot","Cf. Webster , The White Devil , v. vi :"
"eliot",""" . . ."
"eliot","they 'll remarry Ere the worm pierce your winding-sheet , ere the spider Make a thin curtain for your epitaphs ."
"eliot",""""
"eliot","412 ."
"eliot","Cf. Inferno , xxxiii ."
"eliot","46 :"
"eliot",""" ed io sentii chiavar l'uscio di sotto all'orribile torre ."
"eliot",""""
"eliot","Also F. H. Bradley , Appearance and Reality , p. 346 :"
"eliot",""" My external sensations are no less private to myself than are my thoughts or my feelings ."
"eliot","In either case my experience falls within my own circle , a circle closed on the outside ; and , with all its elements alike , every sphere is opaque to the others which surround it . . . ."
"eliot","In brief , regarded as an existence which appears in a soul , the whole world for each is peculiar and private to that soul ."
"eliot",""""
"eliot","425 ."
"eliot","V. Weston , From Ritual to Romance ; chapter on the Fisher King ."
"eliot","428 ."
"eliot","V. Purgatorio , xxvi ."
"eliot","148 ."
"eliot",""" ' Ara vos prec per aquella valor ' que vos guida al som de l'escalina , ' sovegna vos a temps de ma dolor ."
"eliot","' Poi s'ascose nel foco che gli affina ."
"eliot",""""
"eliot","429 ."
"eliot","V. Pervigilium Veneris ."
"eliot","Cf. Philomela in Parts II and III ."
"eliot","430 ."
"eliot","V. Gerard de Nerval , Sonnet El Desdichado ."
"eliot","432 ."
"eliot","V. Kyd 's Spanish Tragedy ."
"eliot","434 ."
"eliot","Shantih ."
"eliot","Repeated as here , a formal ending to an Upanishad ."
"eliot","' The Peace which passeth understanding ' is a feeble translation of the content of this word ."
"eliot","End of the Project Gutenberg EBook of The Waste Land , by T. S. Eliot"
"eliot","* * * END OF THIS PROJECT GUTENBERG EBOOK THE WASTE LAND * * *"
"eliot","* * * * * This file should be named 1321-8.txt or 1321-8.zip * * * * * This and all associated files of various formats will be found in : http://www.gutenberg.org/1/3/2/1321/"
"eliot","Produced by An Anonymous Project Gutenberg Volunteer"
"eliot","Updated editions will replace the previous one--the old editions will be renamed ."
"eliot","Creating the works from public domain print editions means that no one owns a United States copyright in these works , so the Foundation ( and you ! )"
"eliot","can copy and distribute it in the United States without permission and without paying copyright royalties ."
"eliot","Special rules , set forth in the General Terms of Use part of this license , apply to copying and distributing Project Gutenberg-tm electronic works to protect the PROJECT GUTENBERG-tm concept and trademark ."
"eliot","Project Gutenberg is a registered trademark , and may not be used if you charge for the eBooks , unless you receive specific permission ."
"eliot","If you do not charge anything for copies of this eBook , complying with the rules is very easy ."
"eliot","You may use this eBook for nearly any purpose such as creation of derivative works , reports , performances and research ."
"eliot","They may be modified and printed and given away--you may do practically ANYTHING with public domain eBooks ."
"eliot","Redistribution is subject to the trademark license , especially commercial redistribution ."
"eliot","* * * START : FULL LICENSE * * *"
"eliot","THE FULL PROJECT GUTENBERG LICENSE PLEASE READ THIS BEFORE YOU DISTRIBUTE OR USE THIS WORK"
"eliot","To protect the Project Gutenberg-tm mission of promoting the free distribution of electronic works , by using or distributing this work ( or any other work associated in any way with the phrase "" Project Gutenberg "" ) , you agree to comply with all the terms of the Full Project Gutenberg-tm License available with this file or online at www.gutenberg.org/license ."
"eliot","Section 1 ."
"eliot","General Terms of Use and Redistributing Project Gutenberg-tm electronic works"
"eliot","1.A ."
"eliot","By reading or using any part of this Project Gutenberg-tm electronic work , you indicate that you have read , understand , agree to and accept all the terms of this license and intellectual property ( trademark/copyright ) agreement ."
"eliot","If you do not agree to abide by all the terms of this agreement , you must cease using and return or destroy all copies of Project Gutenberg-tm electronic works in your possession ."
"eliot","If you paid a fee for obtaining a copy of or access to a Project Gutenberg-tm electronic work and you do not agree to be bound by the terms of this agreement , you may obtain a refund from the person or entity to whom you paid the fee as set forth in paragraph 1.E.8 ."
"eliot","1.B ."
"eliot",""" Project Gutenberg "" is a registered trademark ."
"eliot","It may only be used on or associated in any way with an electronic work by people who agree to be bound by the terms of this agreement ."
"eliot","There are a few things that you can do with most Project Gutenberg-tm electronic works even without complying with the full terms of this agreement ."
"eliot","See paragraph 1.C below ."
"eliot","There are a lot of things you can do with Project Gutenberg-tm electronic works if you follow the terms of this agreement and help preserve free future access to Project Gutenberg-tm electronic works ."
"eliot","See paragraph 1.E below ."
"eliot","1.C ."
"eliot","The Project Gutenberg Literary Archive Foundation ( "" the Foundation "" or PGLAF ) , owns a compilation copyright in the collection of Project Gutenberg-tm electronic works ."
"eliot","Nearly all the individual works in the collection are in the public domain in the United States ."
"eliot","If an individual work is in the public domain in the United States and you are located in the United States , we do not claim a right to prevent you from copying , distributing , performing , displaying or creating derivative works based on the work as long as all references to Project Gutenberg are removed ."
"eliot","Of course , we hope that you will support the Project Gutenberg-tm mission of promoting free access to electronic works by freely sharing Project Gutenberg-tm works in compliance with the terms of this agreement for keeping the Project Gutenberg-tm name associated with the work ."
"eliot","You can easily comply with the terms of this agreement by keeping this work in the same format with its attached full Project Gutenberg-tm License when you share it without charge with others ."
"eliot","1.D ."
"eliot","The copyright laws of the place where you are located also govern what you can do with this work ."
"eliot","Copyright laws in most countries are in a constant state of change ."
"eliot","If you are outside the United States , check the laws of your country in addition to the terms of this agreement before downloading , copying , displaying , performing , distributing or creating derivative works based on this work or any other Project Gutenberg-tm work ."
"eliot","The Foundation makes no representations concerning the copyright status of any work in any country outside the United States ."
"eliot","1.E ."
"eliot","Unless you have removed all references to Project Gutenberg :"
"eliot","1.E.1 ."
"eliot","The following sentence , with active links to , or other immediate access to , the full Project Gutenberg-tm License must appear prominently whenever any copy of a Project Gutenberg-tm work ( any work on which the phrase "" Project Gutenberg "" appears , or with which the phrase "" Project Gutenberg "" is associated ) is accessed , displayed , performed , viewed , copied or distributed :"
"eliot","This eBook is for the use of anyone anywhere at no cost and with almost no restrictions whatsoever ."
"eliot","You may copy it , give it away or re-use it under the terms of the Project Gutenberg License included with this eBook or online at www.gutenberg.org"
"eliot","1.E.2 ."
"eliot","If an individual Project Gutenberg-tm electronic work is derived from the public domain ( does not contain a notice indicating that it is posted with permission of the copyright holder ) , the work can be copied and distributed to anyone in the United States without paying any fees or charges ."
"eliot","If you are redistributing or providing access to a work with the phrase "" Project Gutenberg "" associated with or appearing on the work , you must comply either with the requirements of paragraphs 1.E.1 through 1.E.7 or obtain permission for the use of the work and the Project Gutenberg-tm trademark as set forth in paragraphs 1.E.8 or 1.E.9 ."
"eliot","1.E.3 ."
"eliot","If an individual Project Gutenberg-tm electronic work is posted with the permission of the copyright holder , your use and distribution must comply with both paragraphs 1.E.1 through 1.E.7 and any additional terms imposed by the copyright holder ."
"eliot","Additional terms will be linked to the Project Gutenberg-tm License for all works posted with the permission of the copyright holder found at the beginning of this work ."
"eliot","1.E.4 ."
"eliot","Do not unlink or detach or remove the full Project Gutenberg-tm License terms from this work , or any files containing a part of this work or any other work associated with Project Gutenberg-tm ."
"eliot","1.E.5 ."
"eliot","Do not copy , display , perform , distribute or redistribute this electronic work , or any part of this electronic work , without prominently displaying the sentence set forth in paragraph 1.E.1 with active links or immediate access to the full terms of the Project Gutenberg-tm License ."
"eliot","1.E.6 ."
"eliot","You may convert to and distribute this work in any binary , compressed , marked up , nonproprietary or proprietary form , including any word processing or hypertext form ."
"eliot","However , if you provide access to or distribute copies of a Project Gutenberg-tm work in a format other than "" Plain Vanilla ASCII "" or other format used in the official version posted on the official Project Gutenberg-tm web site ( www.gutenberg.org ) , you must , at no additional cost , fee or expense to the user , provide a copy , a means of exporting a copy , or a means of obtaining a copy upon request , of the work in its original "" Plain Vanilla ASCII "" or other form ."
"eliot","Any alternate format must include the full Project Gutenberg-tm License as specified in paragraph 1.E.1 ."
"eliot","1.E.7 ."
"eliot","Do not charge a fee for access to , viewing , displaying , performing , copying or distributing any Project Gutenberg-tm works unless you comply with paragraph 1.E.8 or 1.E.9 ."
"eliot","1.E.8 ."
"eliot","You may charge a reasonable fee for copies of or providing access to or distributing Project Gutenberg-tm electronic works provided that"
"eliot","- You pay a royalty fee of 20% of the gross profits you derive from the use of Project Gutenberg-tm works calculated using the method you already use to calculate your applicable taxes ."
"eliot","The fee is owed to the owner of the Project Gutenberg-tm trademark , but he has agreed to donate royalties under this paragraph to the Project Gutenberg Literary Archive Foundation ."
"eliot","Royalty payments must be paid within 60 days following each date on which you prepare ( or are legally required to prepare ) your periodic tax returns ."
"eliot","Royalty payments should be clearly marked as such and sent to the Project Gutenberg Literary Archive Foundation at the address specified in Section 4 , "" Information about donations to the Project Gutenberg Literary Archive Foundation ."
"eliot",""""
"eliot","- You provide a full refund of any money paid by a user who notifies you in writing ( or by e-mail ) within 30 days of receipt that s/he does not agree to the terms of the full Project Gutenberg-tm License ."
"eliot","You must require such a user to return or destroy all copies of the works possessed in a physical medium and discontinue all use of and all access to other copies of Project Gutenberg-tm works ."
"eliot","- You provide , in accordance with paragraph 1.F.3 , a full refund of any money paid for a work or a replacement copy , if a defect in the electronic work is discovered and reported to you within 90 days of receipt of the work ."
"eliot","- You comply with all other terms of this agreement for free distribution of Project Gutenberg-tm works ."
"eliot","1.E.9 ."
"eliot","If you wish to charge a fee or distribute a Project Gutenberg-tm electronic work or group of works on different terms than are set forth in this agreement , you must obtain permission in writing from both the Project Gutenberg Literary Archive Foundation and Michael Hart , the owner of the Project Gutenberg-tm trademark ."
"eliot","Contact the Foundation as set forth in Section 3 below ."
"eliot","1.F ."
"eliot","1.F.1 ."
"eliot","Project Gutenberg volunteers and employees expend considerable effort to identify , do copyright research on , transcribe and proofread public domain works in creating the Project Gutenberg-tm collection ."
"eliot","Despite these efforts , Project Gutenberg-tm electronic works , and the medium on which they may be stored , may contain "" Defects , "" such as , but not limited to , incomplete , inaccurate or corrupt data , transcription errors , a copyright or other intellectual property infringement , a defective or damaged disk or other medium , a computer virus , or computer codes that damage or cannot be read by your equipment ."
"eliot","1.F.2 ."
"eliot","LIMITED WARRANTY , DISCLAIMER OF DAMAGES - Except for the "" Right of Replacement or Refund "" described in paragraph 1.F.3 , the Project Gutenberg Literary Archive Foundation , the owner of the Project Gutenberg-tm trademark , and any other party distributing a Project Gutenberg-tm electronic work under this agreement , disclaim all liability to you for damages , costs and expenses , including legal fees ."
"eliot","YOU AGREE THAT YOU HAVE NO REMEDIES FOR NEGLIGENCE , STRICT LIABILITY , BREACH OF WARRANTY OR BREACH OF CONTRACT EXCEPT THOSE PROVIDED IN PARAGRAPH 1.F.3 ."
"eliot","YOU AGREE THAT THE FOUNDATION , THE TRADEMARK OWNER , AND ANY DISTRIBUTOR UNDER THIS AGREEMENT WILL NOT BE LIABLE TO YOU FOR ACTUAL , DIRECT , INDIRECT , CONSEQUENTIAL , PUNITIVE OR INCIDENTAL DAMAGES EVEN IF YOU GIVE NOTICE OF THE POSSIBILITY OF SUCH DAMAGE ."
"eliot","1.F.3 ."
"eliot","LIMITED RIGHT OF REPLACEMENT OR REFUND - If you discover a defect in this electronic work within 90 days of receiving it , you can receive a refund of the money ( if any ) you paid for it by sending a written explanation to the person you received the work from ."
"eliot","If you received the work on a physical medium , you must return the medium with your written explanation ."
"eliot","The person or entity that provided you with the defective work may elect to provide a replacement copy in lieu of a refund ."
"eliot","If you received the work electronically , the person or entity providing it to you may choose to give you a second opportunity to receive the work electronically in lieu of a refund ."
"eliot","If the second copy is also defective , you may demand a refund in writing without further opportunities to fix the problem ."
"eliot","1.F.4 ."
"eliot","Except for the limited right of replacement or refund set forth in paragraph 1.F.3 , this work is provided to you ' AS-IS ' , WITH NO OTHER WARRANTIES OF ANY KIND , EXPRESS OR IMPLIED , INCLUDING BUT NOT LIMITED TO WARRANTIES OF MERCHANTABILITY OR FITNESS FOR ANY PURPOSE ."
"eliot","1.F.5 ."
"eliot","Some states do not allow disclaimers of certain implied warranties or the exclusion or limitation of certain types of damages ."
"eliot","If any disclaimer or limitation set forth in this agreement violates the law of the state applicable to this agreement , the agreement shall be interpreted to make the maximum disclaimer or limitation permitted by the applicable state law ."
"eliot","The invalidity or unenforceability of any provision of this agreement shall not void the remaining provisions ."
"eliot","1.F.6 ."
"eliot","INDEMNITY - You agree to indemnify and hold the Foundation , the trademark owner , any agent or employee of the Foundation , anyone providing copies of Project Gutenberg-tm electronic works in accordance with this agreement , and any volunteers associated with the production , promotion and distribution of Project Gutenberg-tm electronic works , harmless from all liability , costs and expenses , including legal fees , that arise directly or indirectly from any of the following which you do or cause to occur :( a ) distribution of this or any Project Gutenberg-tm work , ( b ) alteration , modification , or additions or deletions to any Project Gutenberg-tm work , and ( c ) any Defect you cause ."
"eliot","Section 2 ."
"eliot","Information about the Mission of Project Gutenberg-tm"
"eliot","Project Gutenberg-tm is synonymous with the free distribution of electronic works in formats readable by the widest variety of computers including obsolete , old , middle-aged and new computers ."
"eliot","It exists because of the efforts of hundreds of volunteers and donations from people in all walks of life ."
"eliot","Volunteers and financial support to provide volunteers with the assistance they need are critical to reaching Project Gutenberg-tm 's goals and ensuring that the Project Gutenberg-tm collection will remain freely available for generations to come ."
"eliot","In 2001 , the Project Gutenberg Literary Archive Foundation was created to provide a secure and permanent future for Project Gutenberg-tm and future generations ."
"eliot","To learn more about the Project Gutenberg Literary Archive Foundation and how your efforts and donations can help , see Sections 3 and 4 and the Foundation information page at www.gutenberg.org"
"eliot","Section 3 ."
"eliot","Information about the Project Gutenberg Literary Archive Foundation"
"eliot","The Project Gutenberg Literary Archive Foundation is a non profit 501(c)(3 ) educational corporation organized under the laws of the state of Mississippi and granted tax exempt status by the Internal Revenue Service ."
"eliot","The Foundation 's EIN or federal tax identification number is 64-6221541 ."
"eliot","Contributions to the Project Gutenberg Literary Archive Foundation are tax deductible to the full extent permitted by U.S. federal laws and your state 's laws ."
"eliot","The Foundation 's principal office is located at 4557 Melan Dr. S. Fairbanks , AK , 99712 ."
"eliot",", but its volunteers and employees are scattered throughout numerous locations ."
"eliot","Its business office is located at 809 North 1500 West , Salt Lake City , UT 84116 , ( 801 ) 596-1887 ."
"eliot","Email contact links and up to date contact information can be found at the Foundation 's web site and official page at www.gutenberg.org/contact"
"eliot","For additional contact information : Dr. Gregory B. Newby Chief Executive and Director gbnewby@pglaf.org"
"eliot","Section 4 ."
"eliot","Information about Donations to the Project Gutenberg Literary Archive Foundation"
"eliot","Project Gutenberg-tm depends upon and cannot survive without wide spread public support and donations to carry out its mission of increasing the number of public domain and licensed works that can be freely distributed in machine readable form accessible by the widest array of equipment including outdated equipment ."
"eliot","Many small donations ( $ 1 to $ 5,000 ) are particularly important to maintaining tax exempt status with the IRS ."
"eliot","The Foundation is committed to complying with the laws regulating charities and charitable donations in all 50 states of the United States ."
"eliot","Compliance requirements are not uniform and it takes a considerable effort , much paperwork and many fees to meet and keep up with these requirements ."
"eliot","We do not solicit donations in locations where we have not received written confirmation of compliance ."
"eliot","To SEND DONATIONS or determine the status of compliance for any particular state visit www.gutenberg.org/donate"
"eliot","While we cannot and do not solicit contributions from states where we have not met the solicitation requirements , we know of no prohibition against accepting unsolicited donations from donors in such states who approach us with offers to donate ."
"eliot","International donations are gratefully accepted , but we cannot make any statements concerning tax treatment of donations received from outside the United States ."
"eliot","U.S. laws alone swamp our small staff ."
"eliot","Please check the Project Gutenberg Web pages for current donation methods and addresses ."
"eliot","Donations are accepted in a number of other ways including checks , online payments and credit card donations ."
"eliot","To donate , please visit : www.gutenberg.org/donate"
"eliot","Section 5 ."
"eliot","General Information About Project Gutenberg-tm electronic works ."
"eliot","Professor Michael S. Hart was the originator of the Project Gutenberg-tm concept of a library of electronic works that could be freely shared with anyone ."
"eliot","For forty years , he produced and distributed Project Gutenberg-tm eBooks with only a loose network of volunteer support ."
"eliot","Project Gutenberg-tm eBooks are often created from several printed editions , all of which are confirmed as Public Domain in the U.S. unless a copyright notice is included ."
"eliot","Thus , we do not necessarily keep eBooks in compliance with any particular paper edition ."
"eliot","Most people start at our Web site which has the main PG search facility :"
"eliot","www.gutenberg.org"
"eliot","This Web site includes information about Project Gutenberg-tm , including how to make donations to the Project Gutenberg Literary Archive Foundation , how to help produce our new eBooks , and how to subscribe to our email newsletter to hear about new eBooks ."