<?xml version="1.0" encoding="UTF-8" standalone="no"?>
<!-- Created with Inkscape (http://www.inkscape.org/) -->

<svg
   xmlns:dc="http://purl.org/dc/elements/1.1/"
   xmlns:cc="http://creativecommons.org/ns#"
   xmlns:rdf="http://www.w3.org/1999/02/22-rdf-syntax-ns#"
   xmlns:svg="http://www.w3.org/2000/svg"
   xmlns="http://www.w3.org/2000/svg"
   xmlns:sodipodi="http://sodipodi.sourceforge.net/DTD/sodipodi-0.dtd"
   xmlns:inkscape="http://www.inkscape.org/namespaces/inkscape"
   id="svg2"
   version="1.1"
   inkscape:version="0.48.3.1 r9886"
   width="882"
   height="868"
   sodipodi:docname="B02-n.png">
  <metadata
     id="metadata8">
    <rdf:RDF>
      <cc:Work
         rdf:about="">
        <dc:format>image/svg+xml</dc:format>
        <dc:type
           rdf:resource="http://purl.org/dc/dcmitype/StillImage" />
        <dc:title></dc:title>
      </cc:Work>
    </rdf:RDF>
  </metadata>
  <defs
     id="defs6" />
  <sodipodi:namedview
     pagecolor="#ffffff"
     bordercolor="#666666"
     borderopacity="1"
     objecttolerance="10"
     gridtolerance="10"
     guidetolerance="10"
     inkscape:pageopacity="0"
     inkscape:pageshadow="2"
     inkscape:window-width="640"
     inkscape:window-height="480"
     id="namedview4"
     showgrid="false"
     inkscape:zoom="0.2718894"
     inkscape:cx="441"
     inkscape:cy="434"
     inkscape:window-x="0"
     inkscape:window-y="27"
     inkscape:window-maximized="0"
     inkscape:current-layer="svg2" />
  <path
     style="fill:#000000"
     d="m 519,842.19022 c -16.53245,-1.88294 -24.4258,-3.81034 -33.5,-8.18003 -4.4,-2.11882 -12.38929,-5.89645 -17.75398,-8.39472 -5.95342,-2.77244 -12.96697,-7.11185 -18,-11.13693 C 440.4747,807.06397 438.993,805.92199 436.79907,804.5 426.09948,797.56511 422.87989,794.83643 404.79168,777.37299 399.45211,772.21785 394.37548,768 393.5103,768 c -0.86519,0 -1.86207,-0.75312 -2.21529,-1.67361 -0.80512,-2.09811 -2.02223,-3.30535 -11.30141,-11.20979 -11.05837,-9.42003 -27.33741,-26.6264 -32.75094,-34.6166 -2.60847,-3.85 -5.01737,-7.225 -5.35313,-7.5 -0.33575,-0.275 -1.40252,-2.075 -2.37059,-4 -0.96806,-1.925 -2.3361,-4.175 -3.04009,-5 -0.70398,-0.825 -2.53693,-3.75 -4.07322,-6.5 -4.26067,-7.62671 -6.56696,-11.69847 -10.56003,-18.64377 C 319.83567,675.3603 314.38567,665.075 309.73448,656 c -4.6512,-9.075 -9.86921,-19.1332 -11.5956,-22.35155 C 296.4125,630.4301 295,627.2051 295,626.48179 c 0,-0.72332 -0.40897,-1.46512 -0.90883,-1.64846 C 292.741,624.33813 279,597.20386 279,595.03289 c 0,-1.02642 -0.37614,-2.01622 -0.83586,-2.19956 C 277.70442,592.65 276.07129,589.125 274.53495,585 c -1.53633,-4.125 -3.39289,-8.85 -4.12568,-10.5 -4.74841,-10.6918 -19.21167,-57.25258 -21.4336,-69 -0.41611,-2.2 -1.28038,-6.475 -1.92059,-9.5 -1.81449,-8.57349 -3.78444,-22.37475 -5.06716,-35.5 -0.64501,-6.6 -1.3691,-12.63302 -1.60909,-13.40671 -0.90206,-2.9082 -1.10416,-65.08348 -0.24895,-76.59329 1.80218,-24.25482 7.2583,-55.58906 13.51956,-77.64215 0.88105,-3.10318 1.30806,-6.1176 0.94892,-6.6987 -0.97209,-1.57287 1.36533,-10.08342 4.05122,-14.75054 1.29501,-2.25026 3.94329,-9.22526 5.88507,-15.5 1.94179,-6.27473 4.4003,-14.10861 5.46338,-17.40861 1.06307,-3.3 3.71988,-12.975 5.90401,-21.5 4.4792,-17.48294 8.73815,-32.5208 10.05414,-35.5 0.95731,-2.16718 3.67156,-9.79457 9.60813,-27 15.60818,-45.23583 41.77872,-82.557517 71.9654,-102.629549 24.19158,-16.085715 40.64955,-22.52037 72.52273,-28.354577 7.45385,-1.364385 18.02885,-3.669007 23.5,-5.121383 5.47116,-1.452377 13.09756,-3.04555 16.94756,-3.540385 10.96567,-1.409402 38.89096,-2.689844 40,-1.834097 0.55,0.424384 4.3329,1.283497 8.40644,1.90914 9.79388,1.504212 31.73544,10.394494 43.41599,17.591294 8.41593,5.185349 16.7947,11.350352 27.17757,19.996941 16.58766,13.81378 20.85393,17.622786 27.2791,24.355314 4.0035,4.195016 9.6285,10.089615 12.5,13.099109 2.87149,3.009494 6.47919,7.059494 8.01711,9 1.53791,1.940503 6.07507,6.903193 10.08257,11.028193 15.6761,16.13571 32.84257,37.44462 43.70682,54.25374 5.10643,7.90063 18.50178,34.39679 20.4836,40.51679 0.84234,2.60121 1.91345,5.62947 2.38024,6.72947 1.66627,3.92657 3.03611,8.08816 4.60828,14 0.87759,3.3 2.97473,11.175 4.66032,17.5 1.68558,6.325 3.42337,13.525 3.86175,16 2.85378,16.11177 4.82678,30.92447 5.32787,40 0.31885,5.775 1.0102,14.55 1.53631,19.5 3.22062,30.30134 3.35018,33.10747 2.70999,58.69559 -0.66185,26.45431 -1.21638,34.54342 -4.13399,60.30441 -0.87208,7.7 -1.82372,22.1 -2.11475,32 -0.8334,28.34977 -1.00065,31.39039 -2.31017,42 -1.27902,10.36247 -1.83896,17.17301 -2.57047,31.26409 -0.23595,4.54525 -1.10861,10.84525 -1.93924,14 -0.83063,3.15475 -2.24167,13.61091 -3.13564,23.23591 -0.89398,9.625 -2.45408,22.45 -3.46689,28.5 -5.54113,33.09989 -7.39649,43.20113 -10.10222,55 -4.68856,20.44546 -5.81496,25.48094 -7.49371,33.5 -0.86354,4.125 -2.20386,9.01746 -2.97848,10.87212 -0.77462,1.85467 -1.4084,4.44217 -1.4084,5.75 0,1.30784 -0.3596,2.37788 -0.79911,2.37788 -0.43951,0 -1.39166,1.6875 -2.11589,3.75 -0.72423,2.0625 -2.52621,5.775 -4.00441,8.25 -1.4782,2.475 -3.31263,6.075 -4.07652,8 -0.7639,1.925 -2.98981,6.35792 -4.94648,9.85094 -1.95668,3.49302 -4.59175,8.21802 -5.85573,10.5 -3.10159,5.59962 -15.25318,21.46509 -20.32499,26.5369 -2.25873,2.25872 -7.54255,6.58506 -11.74182,9.61409 -4.19928,3.02902 -11.6423,9.13044 -16.54004,13.55872 C 626.46098,813.41499 609.44479,825.524 599.5,831.03487 590.32276,836.1204 582.16322,840 580.6446,840 c -0.89226,0 -4.94828,0.91247 -9.01339,2.02772 -6.32016,1.73391 -9.8355,1.98748 -24.26115,1.75 C 538.09153,843.62497 525.325,842.9106 519,842.19022 z m 51.48691,-3.12291 C 574.63138,837.93029 578.77075,837 579.68549,837 c 3.9464,0 29.67734,-14.96058 42.31451,-24.60265 3.025,-2.30805 9.325,-7.68703 14,-11.95327 4.675,-4.26625 11.2,-9.50678 14.5,-11.64563 6.75854,-4.38045 11.09532,-8.75939 20.5,-20.69929 6.95934,-8.83536 16.99958,-25.48703 20.08048,-33.30334 1.03594,-2.6282 2.93176,-6.46994 4.21294,-8.53718 1.28117,-2.06725 2.93639,-5.33364 3.67827,-7.25864 0.74187,-1.925 1.72674,-3.9275 2.18859,-4.45 0.46184,-0.5225 0.83972,-1.78235 0.83972,-2.79966 0,-1.01731 0.64832,-3.10336 1.4407,-4.63567 0.79239,-1.5323 2.4144,-7.47245 3.60447,-13.20034 2.38843,-11.49564 2.63322,-12.58942 6.35915,-28.41433 1.42446,-6.05 3.7272,-17.975 5.11721,-26.5 1.39,-8.525 2.92903,-17.075 3.42006,-19 1.86003,-7.29199 3.32334,-17.57611 5.57562,-39.18552 1.27918,-12.27296 2.80779,-24.20217 3.39693,-26.50935 0.58914,-2.30717 1.29266,-7.93217 1.56338,-12.5 0.90782,-15.31729 1.94175,-26.2873 3.51606,-37.30513 0.55011,-3.85 1.04792,-13.075 1.10623,-20.5 0.10965,-13.96212 2.22465,-46.4862 3.93424,-60.5 2.99923,-24.58527 4.00736,-65.74384 2.05747,-84 -2.70878,-25.3615 -3.08921,-29.44313 -3.58841,-38.5 -1.00371,-18.21002 -3.2645,-32.57649 -8.49777,-54 -6.83632,-27.98598 -11.30103,-40.70839 -21.01222,-59.87528 -13.21634,-26.08496 -27.7922,-45.83899 -55.87801,-75.72903 C 649.9268,106.93833 641.325,97.541156 635,90.513093 614.68207,67.936699 581.17151,40.045554 563,30.586827 553.99073,25.897278 535.17728,19.08481 526.94006,17.529298 513.03618,14.903696 487.57587,15.845894 472.5,19.543936 c -3.3,0.809475 -12.525,2.806082 -20.5,4.436905 -39.01841,7.978946 -44.72276,9.67351 -61.94053,18.400379 -14.61,7.405113 -25.26212,14.397944 -34.55123,22.681962 C 331.31919,86.634946 310.48302,119.9355 297.98332,157 c -2.31853,6.875 -5.53681,15.96373 -7.15173,20.19717 -2.98662,7.8293 -5.9509,17.74414 -10.40513,34.80283 -3.22229,12.34061 -9.06112,32.56625 -12.05865,41.77105 -1.3023,3.99908 -2.36781,7.77686 -2.36781,8.39507 0,0.61821 -1.52258,4.32124 -3.38351,8.22895 -4.19731,8.81383 -4.81252,10.81259 -5.09109,16.54058 -0.12209,2.51039 -1.6156,9.96991 -3.31892,16.57671 -4.1833,16.22608 -8.98457,43.25212 -10.39054,58.48764 -1.81194,19.63483 -1.0797,79.93848 1.20211,99 3.98194,33.26371 8.9176,56.39647 16.96231,79.5 1.7236,4.95 3.50553,10.35 3.95985,12 4.32822,15.71931 22.83103,59.26729 29.10451,68.5 0.93429,1.375 7.66919,14.2 14.96643,28.5 7.29725,14.3 14.77997,28.29658 16.62828,31.10351 1.84832,2.80692 3.36057,5.43903 3.36057,5.84911 0,1.61573 11.73007,20.64819 19.24822,31.23095 5.72127,8.05341 11.60532,14.6308 21.02283,23.5 7.19281,6.77404 15.90178,15.12893 19.35325,18.56643 3.45148,3.4375 6.63547,6.25991 7.07555,6.27202 0.44008,0.0121 6.42515,5.3975 13.30015,11.96753 6.875,6.57003 14.975,13.78918 18,16.04258 3.025,2.25339 11.35,8.57929 18.5,14.05755 9.24619,7.08434 16.32068,11.55317 24.5,15.47621 6.325,3.03366 14.2,6.81649 17.5,8.40629 10.77822,5.19251 31.36356,8.29302 58.72576,8.84513 13.45462,0.27148 16.81402,0.0187 23.26115,-1.75 z"
     id="path2989"
     inkscape:connector-curvature="0" />
  <path
     style="fill:#000000"
     d="m 519,842.19022 c -16.53245,-1.88294 -24.4258,-3.81034 -33.5,-8.18003 -4.4,-2.11882 -12.38929,-5.89645 -17.75398,-8.39472 -5.95342,-2.77244 -12.96697,-7.11185 -18,-11.13693 C 440.4747,807.06397 438.993,805.92199 436.79907,804.5 426.09948,797.56511 422.87989,794.83643 404.79168,777.37299 399.45211,772.21785 394.37548,768 393.5103,768 c -0.86519,0 -1.86207,-0.75312 -2.21529,-1.67361 -0.80512,-2.09811 -2.02223,-3.30535 -11.30141,-11.20979 -11.05837,-9.42003 -27.33741,-26.6264 -32.75094,-34.6166 -2.60847,-3.85 -5.01737,-7.225 -5.35313,-7.5 -0.33575,-0.275 -1.40252,-2.075 -2.37059,-4 -0.96806,-1.925 -2.3361,-4.175 -3.04009,-5 -0.70398,-0.825 -2.53693,-3.75 -4.07322,-6.5 -4.26067,-7.62671 -6.56696,-11.69847 -10.56003,-18.64377 C 319.83567,675.3603 314.38567,665.075 309.73448,656 c -4.6512,-9.075 -9.86921,-19.1332 -11.5956,-22.35155 C 296.4125,630.4301 295,627.2051 295,626.48179 c 0,-0.72332 -0.40897,-1.46512 -0.90883,-1.64846 C 292.741,624.33813 279,597.20386 279,595.03289 c 0,-1.02642 -0.37614,-2.01622 -0.83586,-2.19956 C 277.70442,592.65 276.07129,589.125 274.53495,585 c -1.53633,-4.125 -3.39289,-8.85 -4.12568,-10.5 -4.74841,-10.6918 -19.21167,-57.25258 -21.4336,-69 -0.41611,-2.2 -1.28038,-6.475 -1.92059,-9.5 -1.81449,-8.57349 -3.78444,-22.37475 -5.06716,-35.5 -0.64501,-6.6 -1.3691,-12.63302 -1.60909,-13.40671 -0.90206,-2.9082 -1.10416,-65.08348 -0.24895,-76.59329 1.80218,-24.25482 7.2583,-55.58906 13.51956,-77.64215 0.88105,-3.10318 1.30806,-6.1176 0.94892,-6.6987 -0.97209,-1.57287 1.36533,-10.08342 4.05122,-14.75054 1.29501,-2.25026 3.94329,-9.22526 5.88507,-15.5 1.94179,-6.27473 4.4003,-14.10861 5.46338,-17.40861 1.06307,-3.3 3.71988,-12.975 5.90401,-21.5 4.4792,-17.48294 8.73815,-32.5208 10.05414,-35.5 0.95731,-2.16718 3.67156,-9.79457 9.60813,-27 15.60818,-45.23583 41.77872,-82.557517 71.9654,-102.629549 24.19158,-16.085715 40.64955,-22.52037 72.52273,-28.354577 7.45385,-1.364385 18.02885,-3.669007 23.5,-5.121383 5.47116,-1.452377 13.09756,-3.04555 16.94756,-3.540385 10.96567,-1.409402 38.89096,-2.689844 40,-1.834097 0.55,0.424384 4.3329,1.283497 8.40644,1.90914 9.79388,1.504212 31.73544,10.394494 43.41599,17.591294 8.41593,5.185349 16.7947,11.350352 27.17757,19.996941 16.58766,13.81378 20.85393,17.622786 27.2791,24.355314 4.0035,4.195016 9.6285,10.089615 12.5,13.099109 2.87149,3.009494 6.47919,7.059494 8.01711,9 1.53791,1.940503 6.07507,6.903193 10.08257,11.028193 15.6761,16.13571 32.84257,37.44462 43.70682,54.25374 5.10643,7.90063 18.50178,34.39679 20.4836,40.51679 0.84234,2.60121 1.91345,5.62947 2.38024,6.72947 1.66627,3.92657 3.03611,8.08816 4.60828,14 0.87759,3.3 2.97473,11.175 4.66032,17.5 1.68558,6.325 3.42337,13.525 3.86175,16 2.85378,16.11177 4.82678,30.92447 5.32787,40 0.31885,5.775 1.0102,14.55 1.53631,19.5 3.22062,30.30134 3.35018,33.10747 2.70999,58.69559 -0.66185,26.45431 -1.21638,34.54342 -4.13399,60.30441 -0.87208,7.7 -1.82372,22.1 -2.11475,32 -0.8334,28.34977 -1.00065,31.39039 -2.31017,42 -1.27902,10.36247 -1.83896,17.17301 -2.57047,31.26409 -0.23595,4.54525 -1.10861,10.84525 -1.93924,14 -0.83063,3.15475 -2.24167,13.61091 -3.13564,23.23591 -0.89398,9.625 -2.45408,22.45 -3.46689,28.5 -5.54113,33.09989 -7.39649,43.20113 -10.10222,55 -4.68856,20.44546 -5.81496,25.48094 -7.49371,33.5 -0.86354,4.125 -2.20386,9.01746 -2.97848,10.87212 -0.77462,1.85467 -1.4084,4.44217 -1.4084,5.75 0,1.30784 -0.3596,2.37788 -0.79911,2.37788 -0.43951,0 -1.39166,1.6875 -2.11589,3.75 -0.72423,2.0625 -2.52621,5.775 -4.00441,8.25 -1.4782,2.475 -3.31263,6.075 -4.07652,8 -0.7639,1.925 -2.98981,6.35792 -4.94648,9.85094 -1.95668,3.49302 -4.59175,8.21802 -5.85573,10.5 -3.10159,5.59962 -15.25318,21.46509 -20.32499,26.5369 -2.25873,2.25872 -7.54255,6.58506 -11.74182,9.61409 -4.19928,3.02902 -11.6423,9.13044 -16.54004,13.55872 C 626.46098,813.41499 609.44479,825.524 599.5,831.03487 590.32276,836.1204 582.16322,840 580.6446,840 c -0.89226,0 -4.94828,0.91247 -9.01339,2.02772 -6.32016,1.73391 -9.8355,1.98748 -24.26115,1.75 C 538.09153,843.62497 525.325,842.9106 519,842.19022 z m 51.48691,-3.12291 C 574.63138,837.93029 578.77075,837 579.68549,837 c 3.9464,0 29.67734,-14.96058 42.31451,-24.60265 3.025,-2.30805 9.325,-7.68703 14,-11.95327 4.675,-4.26625 11.2,-9.50678 14.5,-11.64563 6.75854,-4.38045 11.09532,-8.75939 20.5,-20.69929 6.95934,-8.83536 16.99958,-25.48703 20.08048,-33.30334 1.03594,-2.6282 2.93176,-6.46994 4.21294,-8.53718 1.28117,-2.06725 2.93639,-5.33364 3.67827,-7.25864 0.74187,-1.925 1.72674,-3.9275 2.18859,-4.45 0.46184,-0.5225 0.83972,-1.78235 0.83972,-2.79966 0,-1.01731 0.64832,-3.10336 1.4407,-4.63567 0.79239,-1.5323 2.4144,-7.47245 3.60447,-13.20034 2.38843,-11.49564 2.63322,-12.58942 6.35915,-28.41433 1.42446,-6.05 3.7272,-17.975 5.11721,-26.5 1.39,-8.525 2.92903,-17.075 3.42006,-19 1.86003,-7.29199 3.32334,-17.57611 5.57562,-39.18552 1.27918,-12.27296 2.80779,-24.20217 3.39693,-26.50935 0.58914,-2.30717 1.29266,-7.93217 1.56338,-12.5 0.90782,-15.31729 1.94175,-26.2873 3.51606,-37.30513 0.55011,-3.85 1.04792,-13.075 1.10623,-20.5 0.10965,-13.96212 2.22465,-46.4862 3.93424,-60.5 2.99923,-24.58527 4.00736,-65.74384 2.05747,-84 -2.70878,-25.3615 -3.08921,-29.44313 -3.58841,-38.5 -1.00371,-18.21002 -3.2645,-32.57649 -8.49777,-54 -6.83632,-27.98598 -11.30103,-40.70839 -21.01222,-59.87528 -13.21634,-26.08496 -27.7922,-45.83899 -55.87801,-75.72903 C 649.9268,106.93833 641.325,97.541156 635,90.513093 614.68207,67.936699 581.17151,40.045554 563,30.586827 553.99073,25.897278 535.17728,19.08481 526.94006,17.529298 513.03618,14.903696 487.57587,15.845894 472.5,19.543936 c -3.3,0.809475 -12.525,2.806082 -20.5,4.436905 -39.01841,7.978946 -44.72276,9.67351 -61.94053,18.400379 -14.61,7.405113 -25.26212,14.397944 -34.55123,22.681962 C 331.31919,86.634946 310.48302,119.9355 297.98332,157 c -2.31853,6.875 -5.53681,15.96373 -7.15173,20.19717 -2.98662,7.8293 -5.9509,17.74414 -10.40513,34.80283 -3.22229,12.34061 -9.06112,32.56625 -12.05865,41.77105 -1.3023,3.99908 -2.36781,7.77686 -2.36781,8.39507 0,0.61821 -1.52258,4.32124 -3.38351,8.22895 -4.19731,8.81383 -4.81252,10.81259 -5.09109,16.54058 -0.12209,2.51039 -1.6156,9.96991 -3.31892,16.57671 -4.1833,16.22608 -8.98457,43.25212 -10.39054,58.48764 -1.81194,19.63483 -1.0797,79.93848 1.20211,99 3.98194,33.26371 8.9176,56.39647 16.96231,79.5 1.7236,4.95 3.50553,10.35 3.95985,12 4.32822,15.71931 22.83103,59.26729 29.10451,68.5 0.93429,1.375 7.66919,14.2 14.96643,28.5 7.29725,14.3 14.77997,28.29658 16.62828,31.10351 1.84832,2.80692 3.36057,5.43903 3.36057,5.84911 0,1.61573 11.73007,20.64819 19.24822,31.23095 5.72127,8.05341 11.60532,14.6308 21.02283,23.5 7.19281,6.77404 15.90178,15.12893 19.35325,18.56643 3.45148,3.4375 6.63547,6.25991 7.07555,6.27202 0.44008,0.0121 6.42515,5.3975 13.30015,11.96753 6.875,6.57003 14.975,13.78918 18,16.04258 3.025,2.25339 11.35,8.57929 18.5,14.05755 9.24619,7.08434 16.32068,11.55317 24.5,15.47621 6.325,3.03366 14.2,6.81649 17.5,8.40629 10.77822,5.19251 31.36356,8.29302 58.72576,8.84513 13.45462,0.27148 16.81402,0.0187 23.26115,-1.75 z"
     id="path2987"
     inkscape:connector-curvature="0" />
</svg>
