<?xml version="1.0" encoding="UTF-8" standalone="no"?>
<!-- Created with Inkscape (http://www.inkscape.org/) -->

<svg
   xmlns:dc="http://purl.org/dc/elements/1.1/"
   xmlns:cc="http://creativecommons.org/ns#"
   xmlns:rdf="http://www.w3.org/1999/02/22-rdf-syntax-ns#"
   xmlns:svg="http://www.w3.org/2000/svg"
   xmlns="http://www.w3.org/2000/svg"
   xmlns:sodipodi="http://sodipodi.sourceforge.net/DTD/sodipodi-0.dtd"
   xmlns:inkscape="http://www.inkscape.org/namespaces/inkscape"
   width="744.09448819"
   height="1052.3622047"
   id="svg2"
   version="1.1"
   inkscape:version="0.48.5 r10040"
   sodipodi:docname="tatatas.svg">
  <sodipodi:namedview
     id="base"
     pagecolor="#ffffff"
     bordercolor="#666666"
     borderopacity="1.0"
     inkscape:pageopacity="0.0"
     inkscape:pageshadow="2"
     inkscape:zoom="0.24748737"
     inkscape:cx="5738.768"
     inkscape:cy="-305.91192"
     inkscape:document-units="px"
     inkscape:current-layer="layer1"
     showgrid="false"
     inkscape:window-width="1438"
     inkscape:window-height="879"
     inkscape:window-x="0"
     inkscape:window-y="19"
     inkscape:window-maximized="0" />
  <defs
     id="defs4" />
  <metadata
     id="metadata7">
    <rdf:RDF>
      <cc:Work
         rdf:about="">
        <dc:format>image/svg+xml</dc:format>
        <dc:type
           rdf:resource="http://purl.org/dc/dcmitype/StillImage" />
        <dc:title></dc:title>
      </cc:Work>
    </rdf:RDF>
  </metadata>
  <g
     id="layer1"
     inkscape:groupmode="layer"
     inkscape:label="Layer 1">
    <rect
       style="color:#000000;fill:#ffffff;fill-opacity:0.10752689000000000;fill-rule:nonzero;stroke:none;stroke-width:3;marker:none;visibility:visible;display:inline;overflow:visible;enable-background:accumulate"
       id="rect5118"
       width="662.6601"
       height="1034.3961"
       x="6299.3115"
       y="999.83429"
       inkscape:export-filename="/home/rlafuente/cqrrelations/tataviz/unaverage2.png"
       inkscape:export-xdpi="72.04203"
       inkscape:export-ydpi="72.04203" />
    <path
       inkscape:connector-curvature="0"
       id="path2987"
       d="m 4589.4878,222.28637 c 46.1171,-7.7415 83.7703,-42.9062 104.1842,-83.6691 19.6516,-29.1346 50.3471,-50.579105 61.5767,-85.671805 21.7427,-53.20599955 24.2738,-112.13 27.4017,-168.959195 -1.0665,-68.9076 9.0569,-138.2088 -2.9012,-206.6218 -10.0228,-59.3154 -20.0558,-119.4148 -41.2063,-176.0518 -16.0943,-44.0799 -43.3206,-85.884 -85.9358,-108.2392 -36.2964,-26.3054 -83.8301,-20.1201 -125.4076,-14.7404 -29.8022,9.4492 -59.9593,22.2976 -85.6817,40.5026 -37.8543,29.3203 -55.0982,80.5214 -44.5479,126.977 5.5994,28.7861 9.1238,57.5976 5.0221,87.283 -11.0415,61.5737 -21.6035,123.332 -40.016,183.2329 -15.9853,88.431895 -24.39,182.87789545 9.2235,268.452795 19.0528,62.265205 67.0025,123.937305 135.8741,131.365005 27.2391,2.9772 54.9519,9.9021 82.4142,6.14 z"
       style="fill:#000000" />
    <path
       inkscape:connector-curvature="0"
       id="path2987-0"
       d="m 4104.0885,132.07327 c 49.9356,-11.2278 91.7707,-42.662805 135.4458,-67.707205 38.9348,-26.831 63.5398,-69.1098996 80.667,-112.1702 13.435,-35.78 17.8009,-73.871495 16.1232,-111.897695 0.6076,-65.7816 -5.1281,-133.0719 -29.3397,-194.7159 -24.2752,-46.8361 -64.029,-85.9094 -111.0278,-109.7681 -46.5106,-23.6435 -101.3134,-29.175 -152.2407,-19.668 -50.8118,13.7016 -86.3794,57.2059 -112.6278,100.381 -33.7742,58.8248 -31.3914,129.6531 -24.0804,194.8626 6.6287,52.6963 11.3791,105.688895 16.8326,158.510795 9.7786,55.111 28.4556,116.1849 77.9674,148.257705 29.8166,20.2502 68.1706,17.7733 102.2804,13.915 z"
       style="fill:#000000" />
    <path
       inkscape:connector-curvature="0"
       id="path2987-7"
       d="m 3781.0587,149.87997 c 29.3875,-9.9636 55.698,-34.2195 67.5042,-62.908105 17.7152,-40.6056 16.0983,-85.2550996 18.5433,-128.4722 2.2201,-26.4149 7.0709,-52.0399 8.4146,-78.557195 2.5195,-40.2762 5.6943,-80.5112 12.0406,-120.3772 1.8674,-32.6556 -5.2713,-65.0403 -2.4542,-97.7788 1.5014,-50.7127 -16.124,-100.2891 -38.5124,-145.0839 -21.5195,-41.8299 -69.5032,-62.026 -114.8558,-61.3094 -27.2647,-3.3581 -55.4654,-3.9674 -80.7852,8.5233 -46.9044,15.7107 -83.01,54.9942 -98.0343,101.7068 -16.5983,41.4485 -16.7514,86.8511 -22.8844,130.5103 -2.5706,80.5886 4.5542,162.8611 31.9623,239.164095 23.9745,56.3450004 53.2743,110.7926 89.3611,160.3132 29.1858,38.386705 81.2675,64.078305 129.7002,54.269105 z"
       style="fill:#000000" />
    <path
       inkscape:connector-curvature="0"
       id="path2989-1"
       d="m 3278.8511,120.04087 c 42.0627,-5.6447 73.6565,-36.955005 108.405,-58.335905 45.7812,-30.8815 86.1046,-74.4934 100.7182,-128.8682 13.5729,-43.676395 23.3431,-89.090295 20.5522,-135.119295 -0.035,-58.9976 -12.4381,-117.6974 -38.7788,-170.5929 -16.8727,-41.4664 -39.8167,-83.6188 -80.3778,-106.2788 -25.1869,-14.3381 -55.6324,-27.5707 -84.4888,-15.6727 -28.8163,3.3826 -59.5398,3.1614 -82.5471,24.1373 -24.8097,18.917 -48.1384,40.9048 -60.3245,70.3203 -25.9081,51.8693 -38.9447,109.8568 -36.3972,167.8721 1.1502,69.4954 6.7965,138.908695 14.509,207.945995 6.4434,45.6168 24.6083,91.6735 62.2687,120.3929 21.3137,16.787205 48.8942,28.545605 76.4611,24.199205 z"
       style="fill:#000000" />
    <path
       inkscape:connector-curvature="0"
       id="path2987-5"
       d="m 2923.3236,186.99967 c 15.586,-2.5973 29.6013,-11.8701 45.8528,-9.0076 49.7789,4.0807 89.8869,-34.8716 109.5808,-76.9962 28.2184,-47.810905 39.5545,-104.6568046 31.0379,-159.641605 -5.5413,-57.353595 -12.1974,-115.688995 -37.0061,-168.361495 -20.6457,-49.4934 -30.5115,-102.3213 -36.6125,-155.4249 -11.1329,-46.4321 -21.3191,-93.6807 -39.3055,-137.9804 -17.3909,-40.8889 -44.5161,-84.5567 -90.9466,-95.2929 -39.2678,-12.0366 -85.8703,-7.1028 -115.0407,24.2572 -38.0821,45.3014 -38.07,108.1567 -60.5983,160.7105 -27.4685,83.0431 -41.2266,170.7402 -38.8953,258.2418 -0.518,64.5113 6.029,131.102995 37.3872,188.712195 19.8149,41.6505 50.8932,76.3206 76.9283,114.033305 27.8406,34.2127 72.6795,60.0755 117.618,56.7501 z"
       style="fill:#000000" />
    <path
       inkscape:connector-curvature="0"
       id="path2987-54"
       d="m 2504.5544,149.66937 c 54.3576,-11.9768 95.2279,-54.063805 125.3471,-98.391505 15.7209,-32.0368 31.5459,-65.0811 35.2496,-101.0191 9.2461,-53.377895 4.6184,-108.293895 -2.3294,-161.694995 -8.8033,-41.3467 -19.6163,-82.5626 -36.1433,-121.3721 -28.2953,-57.1016 -72.1259,-109.0767 -131.3053,-135.5117 -36.7492,-18.8742 -79.3986,-28.22 -120.1133,-17.5344 -33.0988,9.2138 -61.3577,30.5231 -88.6907,50.5749 -29.3235,22.5491 -44.8559,59.8011 -40.1803,96.4665 3.0704,52.3334 37.5096,97.0256 38.9989,149.8018 2.846,43.2098 1.917,86.6057 -2.1392,129.642995 -1.8889,53.8847004 16.967,107.9313 48.1719,151.3529 21.143,27.620705 50.6826,49.930105 85.9907,54.264705 28.9334,3.6132 58.1286,10.7174 87.1433,3.42 z"
       style="fill:#000000" />
    <path
       inkscape:connector-curvature="0"
       id="path2987-3"
       d="m 5083.2796,121.75967 c 29.1572,-7.033 48.2495,-31.834905 59.8195,-58.036705 15.6958,-31.6848 19.8489,-67.5137996 31.9194,-100.6041 16.4332,-56.8973 39.5135,-112.905095 40.5608,-172.984095 0.8616,-33.9963 0.4631,-69.2331 -15.7082,-99.9251 -11.7087,-26.1395 -26.8086,-50.6926 -41.7034,-75.0631 -42.1198,-49.2415 -100.8818,-90.7982 -167.7656,-92.662 -35.8314,-0.2363 -67.0776,19.0724 -94.5522,39.9717 -47.8955,31.494 -72.7956,88.7665 -80.1268,143.9788 -4.9462,53.8945 -0.9528,108.7203 10.2336,161.5707 12.1378,45.569495 42.4167,83.192095 71.8504,118.852595 18.3613,15.2310004 25.9069,37.7452 37.0354,57.9593 22.351,43.8447 68.5872,74.463405 117.3313,78.929305 10.3705,0.1135 20.9124,0.1438 31.1058,-1.9873 z"
       style="fill:#000000" />
    <path
       inkscape:connector-curvature="0"
       id="path3015"
       d="m 1195.741,248.88697 c 38.2235,-5.59 70.7016,-28.474 103.6658,-46.9172 35.0133,-25.3747 59.0496,-63.4498 69.6283,-105.142305 23.1849,-47.6641 31.1657,-100.9177996 40.7271,-152.5693 12.746,-112.118095 -13.4593,-223.702495 -39.8573,-331.952895 -15.3349,-45.7863 -18.8241,-99.2433 -57.1504,-133.4366 -46.3763,-54.1557 -120.4924,-88.1011 -192.0234,-72.0435 -42.5129,11.9942 -93.7116,11.348 -123.89636,48.8124 -38.6323,47.375 -45.6736,110.9846 -51.1037,169.6832 0.2179,62.9324 -8.5478,125.6194 -6.0591,188.5152 6.7503,72.0996 29.119,142.191295 30.8632,214.957495 2.317,51.0525 13.8383,103.941005 48.31146,143.475505 29.4298,43.2105 76.7713,77.7559 130.713,78.5702 15.4025,0.086 30.8658,-0.203 46.1814,-1.9522 z"
       style="fill:#000000" />
    <path
       inkscape:connector-curvature="0"
       id="path2987-9"
       d="m 2080.648,136.17287 c 39.6588,-11.2349 69.8408,-42.145005 93,-74.534305 15.2482,-23.1462 29.281,-47.8845 38.3488,-73.9738 16.0585,-41.7404 23.3177,-86.2318 31.5495,-129.973195 3.6334,-42.7824 8.2154,-86.4661 3.673,-129.1091 -1.6474,-28.132 -22.8143,-50.8515 -24.7117,-79.0553 -9.7154,-71.0324 -53.1217,-139.5073 -120.7426,-168.0154 -38.1157,-17.6941 -81.9909,-15.4485 -122.8998,-12.4246 -50.8576,3.1823 -89.9538,42.8761 -114.2442,84.5268 -39.1806,66.8259 -42.2684,148.6769 -29.14,223.5256 6.9521,52.5317 5.3602,107.0708 26.3098,156.772095 15.331,44.5387 33.8396,88.1674 53.8572,130.7022 19.9851,39.124705 57.4499,75.184105 104.2157,73.773605 20.1878,-0.094 40.8964,1.9053 60.7843,-2.2146 z"
       style="fill:#000000" />
    <path
       inkscape:connector-curvature="0"
       id="path2987-06"
       d="m 1653.8667,88.026765 c 43.9023,-7.7873 82.7715,-35.3982 111.3803,-68.7344 17.0364,-17.3900996 27.3583,-39.1925 35.8274,-61.6705 17.4995,-38.6473 15.5013,-82.050995 19.414,-123.396495 2.7151,-56.8563 -26.4086,-107.9069 -45.8029,-159.5288 -13.5836,-30.8447 -23.5795,-67.1295 -54.5011,-85.5157 -23.7115,-15.7731 -53.5945,-19.0386 -81.212,-19.7824 -28.7266,-10.8863 -59.9793,0.4698 -87.1442,10.8922 -45.2678,21.4872 -69.9413,68.1219 -90.1097,111.5249 -20.3656,50.5612 -29.3582,105.0707 -34.1623,159.1082 -3.1444,48.5888 17.1009,94.226095 35.0067,138.178495 16.1467,35.4209 41.4558,69.7458 80.3439,81.5792 25.6994,8.3128 52.351,13.6773 78.7993,18.8842 10.7328,1.0618 21.5157,-0.1737 32.1606,-1.5389 z"
       style="fill:#000000" />
    <path
       style="fill:#de8787"
       d="m 1139.1725,1921.6996 c 38.2235,-5.59 70.7016,-28.474 103.6658,-46.9172 35.0133,-25.3747 59.0496,-63.4498 69.6283,-105.1423 23.1849,-47.6641 31.1657,-100.9178 40.7271,-152.5693 12.746,-112.1181 -13.4593,-223.7025 -39.8573,-331.9529 -15.3349,-45.7863 -18.8241,-99.2433 -57.1504,-133.4366 -46.3763,-54.1557 -120.4924,-88.1011 -192.0234,-72.0435 -42.5129,11.9942 -93.71162,11.348 -123.89642,48.8124 -38.63228,47.375 -45.67358,110.9846 -51.10368,169.6832 0.2179,62.9324 -8.5478,125.6194 -6.0591,188.5152 6.7503,72.0996 29.11898,142.1913 30.86318,214.9575 2.317,51.0525 13.8383,103.941 48.3115,143.4755 29.4298,43.2105 76.77132,77.7559 130.71302,78.5702 15.4025,0.086 30.8658,-0.203 46.1814,-1.9522 z"
       id="path3682"
       inkscape:connector-curvature="0" />
    <path
       inkscape:connector-curvature="0"
       d="m 1618.7532,1845.3102 c 41.0629,-6.6887 76.7365,-31.9361 107.523,-57.8258 26.0249,-21.3824 43.204,-51.3212 52.7279,-83.4064 20.3422,-43.1557 23.3334,-91.4845 30.0705,-137.9829 7.7306,-84.4872 -19.9339,-165.8047 -42.8301,-245.7409 -14.4592,-38.3155 -21.2018,-83.1864 -55.8257,-109.4761 -35.0439,-34.9645 -87.0435,-53.5699 -136.6177,-45.913 -35.6198,0.554 -76.8455,5.9089 -105.5203,29.8523 -41.9501,34.4311 -57.8075,89.5533 -70.6067,140.6041 -10.0739,56.7468 -18.953,115.345 -20.1107,173.8116 1.8029,60.3442 23.1099,118.2088 32.9349,176.5681 9.2319,43.2367 27.6471,86.8433 64.3277,112.5273 27.5646,25.7616 64.5612,45.7166 104.7562,48.7272 13.0676,0.5739 26.1907,-0.1884 39.171,-1.7455 0,0 0,0 0,0"
       style="fill:#de8787"
       id="path3717" />
    <path
       id="path3781"
       style="fill:#de8787"
       d="m 2080.0154,1843.3103 c 40.3608,-8.9618 73.2886,-37.0406 100.2615,-66.1801 20.6365,-22.2643 36.2425,-49.6028 45.5383,-78.6901 18.2004,-42.448 23.3256,-88.8581 30.81,-133.978 5.682,-63.6348 -5.8592,-126.1354 -19.5785,-187.425 -8.0533,-33.2238 -22.0081,-67.019 -40.2687,-94.2657 -22.3797,-52.9985 -70.0826,-96.5386 -128.6802,-106.9642 -36.8677,-8.5701 -79.4182,-4.7698 -114.21,8.7138 -46.4039,18.8067 -73.8807,66.2147 -92.4255,112.5655 -24.6272,61.7863 -30.6107,132.0109 -24.6253,198.6686 4.3775,56.4379 14.235,112.6398 29.6223,166.6701 12.2815,43.8877 30.7434,87.5053 59.0925,121.6147 23.7748,32.4432 61.0055,60.4504 104.4859,61.2504 16.6277,0.24 33.5436,0.8585 49.9777,-1.98 0,0 0,0 0,0"
       inkscape:connector-curvature="0" />
    <path
       inkscape:connector-curvature="0"
       d="m 2530.681,1820.7743 c 47.3592,-10.4693 84.2582,-45.5522 112.8043,-82.2858 18.1787,-27.1505 33.8942,-57.3419 40.3939,-89.8546 13.7232,-47.913 13.972,-98.576 14.2403,-147.8365 -1.5606,-52.4907 -12.7377,-104.349 -27.8609,-154.3985 -18.1743,-45.1627 -47.067,-88.0479 -85.787,-114.8887 -29.5644,-35.9364 -74.7406,-62.3793 -124.3967,-62.2493 -34.9833,0.3218 -70.388,12.8766 -101.4504,29.6443 -37.8637,20.6779 -59.3683,63.0079 -66.3029,104.516 -10.7784,57.0598 3.4494,114.5182 7.1868,174.2352 3.6117,49.8239 8.076,99.6227 13.7415,148.1566 5.1963,48.8862 23.8552,97.7183 53.6322,136.4838 22.4589,30.0319 55.8441,55.1902 95.2384,57.7575 22.7805,1.9266 45.8361,5.788 68.5605,0.72 0,0 0,0 0,0"
       style="fill:#de8787"
       id="path3846" />
    <path
       id="path3915"
       style="fill:#de8787"
       d="m 2949.2359,1864.5369 c 31.4726,-6.5333 56.9297,-28.7111 79.3285,-45.6467 33.9788,-11.5349 61.8906,-46.1067 74.9874,-83.4254 20.9708,-47.862 26.7632,-101.6164 22.6391,-153.739 -3.551,-54.9222 -12.4676,-110.0191 -32.4335,-161.38 -19.41,-47.3281 -38.7893,-95.1846 -61.1998,-135.1569 -20.3486,-41.1842 -48.0298,-78.0299 -81.8511,-100.1148 -26.1871,-20.2835 -57.452,-35.84 -96.1985,-32.8243 -38.5657,4.3207 -72.6193,27.9526 -90.6718,64.3866 -24.4302,51.1806 -17.3103,111.3375 -26.7057,167.4729 -11.9284,66.4335 -16.5753,135.1814 -12.5769,203.1992 2.3391,56.6987 14.9421,114.4106 45.5097,162.598 21.1369,35.8411 53.3686,65.7554 86.0833,85.8953 25.3106,18.0697 59.2578,32.9318 93.0893,28.7351 0,0 0,0 0,0"
       inkscape:connector-curvature="0" />
    <path
       inkscape:connector-curvature="0"
       d="m 3344.3583,1832.7358 c 36.7676,-6.0891 65.2931,-32.8331 93.8667,-51.9913 39.88,-21.2082 73.9976,-60.3001 87.8528,-106.1468 17.2719,-45.7693 25.0532,-95.3534 21.5957,-144.4292 -1.793,-56.9599 -12.4529,-113.8583 -35.6062,-165.9865 -18.1413,-44.3972 -39.303,-89.4016 -70.7888,-120.7178 -22.7677,-27.7611 -51.8311,-52.8003 -83.1699,-57.8937 -27.5017,-8.4505 -58.4959,-16.3393 -89.3728,-4.3435 -31.6877,11.6188 -60.3789,34.4287 -75.4982,67.3534 -25.1691,51.525 -28.1275,110.5971 -31.5514,167.6725 -5.6767,50.5906 -7.1506,102.3281 -3.8917,153.672 2.4293,45.6843 10.4006,91.8466 27.6126,133.1996 13.7901,40.729 38.9884,78.7145 74.176,103.1441 23.3121,17.4285 54.076,30.7387 84.7752,26.4672 0,0 0,0 0,0"
       style="fill:#de8787"
       id="path3984" />
    <path
       id="path4051"
       style="fill:#de8787"
       d="m 3780.9015,1835.7954 c 33.0775,-8.0263 60.4955,-33.5263 80.6854,-57.4497 28.7976,-30.9069 45.048,-72.7776 53.1981,-117.3095 9.746,-36.0921 16.0621,-73.6966 15.0052,-111.4932 0.3632,-48.618 -3.3793,-97.1848 -11.7829,-143.1819 -8.1369,-38.5263 -22.2871,-77.2209 -36.6215,-109.2482 -10.6331,-39.2369 -33.9775,-76.5447 -60.8411,-101.4888 -24.5106,-25.1402 -63.9996,-39.1827 -102.1143,-32.8265 -29.4762,4.1303 -57.9222,15.2306 -78.1417,37.9383 -36.0368,33.6179 -55.5688,82.7957 -64.7929,134.6897 -11.1375,46.0196 -11.951,94.5896 -13.388,142.0911 -0.071,63.1365 7.4774,127.3539 29.7874,186.1819 18.8823,48.537 46.1314,94.7536 81.7686,131.7286 26.2489,27.9076 67.6717,47.4085 107.2377,40.3682 0,0 0,0 0,0"
       inkscape:connector-curvature="0" />
    <path
       inkscape:connector-curvature="0"
       d="m 4164.7286,1824.3813 c 41.5065,-9.6271 76.1331,-38.0946 108.0656,-62.5785 33.8662,-28.8689 54.2939,-70.9437 66.9325,-114.7398 11.5905,-35.9361 16.9315,-73.7841 15.5642,-111.6955 0.3335,-40.7544 -2.1788,-81.6718 -8.5728,-121.0457 -6.2606,-35.6386 -17.0791,-71.1026 -30.2992,-102.5273 -17.4542,-43.0365 -49.0033,-81.227 -85.9345,-105.6284 -35.5106,-24.3919 -82.6565,-34.1789 -127.1775,-26.2473 -40.144,8.916 -72.1508,36.2183 -95.3848,69.1597 -26.4619,31.5151 -40.1518,72.3106 -46.12,114.8633 -6.9248,39.6155 -6.1199,80.9052 -5.0106,120.9584 3.2788,57.9164 9.4282,116.5214 23.31,172.3463 14.3304,51.824 37.2935,105.4693 79.868,139.9932 28.0327,24.0789 67.9212,32.5908 104.7591,27.1416 0,0 0,0 0,0"
       style="fill:#de8787"
       id="path4121" />
    <path
       id="path4189"
       style="fill:#de8787"
       d="m 4599.3418,1843.5778 c 43.8118,-8.6844 79.9517,-40.5005 106.1249,-73.1239 26.7589,-29.0017 52.3205,-60.7613 64.2546,-100.2057 16.6666,-44.5711 20.6026,-92.9571 21.4829,-140.3274 -0.3665,-54.831 3.4391,-109.9403 -5.737,-163.8338 -8.1417,-47.4769 -18.5674,-95.2586 -35.7527,-139.2895 -16.7743,-43.5582 -46.162,-83.5555 -85.9352,-106.9338 -35.9035,-25.3486 -83.2433,-27.1495 -126.2925,-20.4939 -34.9731,9.1827 -66.0551,29.258 -90.5333,54.8312 -32.1581,30.4177 -47.625,76.416 -45.3339,120.9202 -0.6627,34.2007 1.5019,69.2513 0.01,104.1207 -4.701,45.2659 -8.8035,90.7102 -16.1686,135.0951 -6.1514,58.6504 -7.8498,120.1772 12.4274,176.9209 16.6916,57.0446 52.148,114.7032 107.871,135.6791 27.6359,13.528 61.4366,21.2464 93.5867,16.6408 0,0 0,0 0,0"
       inkscape:connector-curvature="0" />
    <path
       inkscape:connector-curvature="0"
       d="m 4599.3418,1843.5778 c 43.8118,-8.6844 79.9517,-40.5005 106.1249,-73.1239 26.7589,-29.0017 52.3205,-60.7613 64.2546,-100.2057 16.6666,-44.5711 20.6026,-92.9571 21.4829,-140.3274 -0.3665,-54.831 3.4391,-109.9403 -5.737,-163.8338 -8.1417,-47.4769 -18.5674,-95.2586 -35.7527,-139.2895 -16.7743,-43.5582 -46.162,-83.5555 -85.9352,-106.9338 -35.9035,-25.3486 -83.2433,-27.1495 -126.2925,-20.4939 -34.9731,9.1827 -66.0551,29.258 -90.5333,54.8312 -32.1581,30.4177 -47.625,76.416 -45.3339,120.9202 -0.6627,34.2007 1.5019,69.2513 0.01,104.1207 -4.701,45.2659 -8.8035,90.7102 -16.1686,135.0951 -6.1514,58.6504 -7.8498,120.1772 12.4274,176.9209 16.6916,57.0446 52.148,114.7032 107.871,135.6791 27.6359,13.528 61.4366,21.2464 93.5867,16.6408 0,0 0,0 0,0"
       style="fill:#de8787"
       id="path4251" />
    <path
       style="fill:none;stroke:#b3b3b3;stroke-width:3;stroke-miterlimit:4;stroke-dasharray:none"
       d="m 5986.9253,1943.9715 c 46.1171,-7.7415 83.7703,-42.9062 104.1842,-83.6691 19.6516,-29.1346 50.3471,-50.5791 61.5767,-85.6718 21.7427,-53.206 24.2738,-112.13 27.4017,-168.9592 -1.0665,-68.9076 9.0569,-138.2088 -2.9012,-206.6218 -10.0228,-59.3154 -20.0558,-119.4148 -41.2063,-176.0518 -16.0943,-44.0799 -43.3206,-85.884 -85.9358,-108.2392 -36.2964,-26.3054 -83.8301,-20.1201 -125.4076,-14.7404 -29.8022,9.4492 -59.9593,22.2976 -85.6817,40.5026 -37.8543,29.3203 -55.0982,80.5214 -44.5479,126.977 5.5994,28.7861 9.1238,57.5976 5.0221,87.283 -11.0415,61.5737 -21.6035,123.332 -40.016,183.2329 -15.9853,88.4319 -24.39,182.8779 9.2235,268.4528 19.0528,62.2652 67.0025,123.9373 135.8741,131.365 27.2391,2.9772 54.9519,9.9021 82.4142,6.14 z"
       id="path4287"
       inkscape:connector-curvature="0" />
    <path
       style="fill:none;stroke:#b3b3b3;stroke-width:3;stroke-miterlimit:4;stroke-dasharray:none"
       d="m 5948.7664,1829.0248 c 49.9356,-11.2278 91.7707,-42.6628 135.4458,-67.7072 38.9348,-26.831 63.5398,-69.1099 80.667,-112.1702 13.435,-35.78 17.8009,-73.8715 16.1232,-111.8977 0.6076,-65.7816 -5.1281,-133.0719 -29.3397,-194.7159 -24.2752,-46.8361 -64.029,-85.9094 -111.0278,-109.7681 -46.5106,-23.6435 -101.3134,-29.175 -152.2407,-19.668 -50.8118,13.7016 -86.3794,57.2059 -112.6278,100.381 -33.7742,58.8248 -31.3914,129.6531 -24.0804,194.8626 6.6287,52.6963 11.3791,105.6889 16.8326,158.5108 9.7786,55.111 28.4556,116.1849 77.9674,148.2577 29.8166,20.2502 68.1706,17.7733 102.2804,13.915 z"
       id="path4289"
       inkscape:connector-curvature="0" />
    <path
       style="fill:none;stroke:#b3b3b3;stroke-width:3;stroke-miterlimit:4;stroke-dasharray:none"
       d="m 6036.5986,1867.4036 c 29.3875,-9.9636 55.698,-34.2195 67.5042,-62.9081 17.7152,-40.6056 16.0983,-85.2551 18.5433,-128.4722 2.2201,-26.4149 7.0709,-52.0399 8.4146,-78.5572 2.5195,-40.2762 5.6943,-80.5112 12.0406,-120.3772 1.8674,-32.6556 -5.2713,-65.0403 -2.4542,-97.7788 1.5014,-50.7127 -16.124,-100.2891 -38.5124,-145.0839 -21.5195,-41.8299 -69.5032,-62.026 -114.8558,-61.3094 -27.2647,-3.3581 -55.4654,-3.9674 -80.7852,8.5233 -46.9044,15.7107 -83.01,54.9942 -98.0343,101.7068 -16.5983,41.4485 -16.7514,86.8511 -22.8844,130.5103 -2.5706,80.5886 4.5542,162.8611 31.9623,239.1641 23.9745,56.345 53.2743,110.7926 89.3611,160.3132 29.1858,38.3867 81.2675,64.0783 129.7002,54.2691 z"
       id="path4291"
       inkscape:connector-curvature="0" />
    <path
       style="fill:none;stroke:#b3b3b3;stroke-width:3;stroke-miterlimit:4;stroke-dasharray:none"
       d="m 5925.9514,1829.4578 c 42.0627,-5.6447 73.6565,-36.955 108.405,-58.3359 45.7812,-30.8815 86.1046,-74.4934 100.7182,-128.8682 13.5729,-43.6764 23.3431,-89.0903 20.5522,-135.1193 -0.035,-58.9976 -12.4381,-117.6974 -38.7788,-170.5929 -16.8727,-41.4664 -39.8167,-83.6188 -80.3778,-106.2788 -25.1869,-14.3381 -55.6324,-27.5707 -84.4888,-15.6727 -28.8163,3.3826 -59.5398,3.1614 -82.5471,24.1373 -24.8097,18.917 -48.1384,40.9048 -60.3245,70.3203 -25.9081,51.8693 -38.9447,109.8568 -36.3972,167.8721 1.1502,69.4954 6.7965,138.9087 14.509,207.946 6.4434,45.6168 24.6083,91.6735 62.2687,120.3929 21.3137,16.7872 48.8942,28.5456 76.4611,24.1992 z"
       id="path4293"
       inkscape:connector-curvature="0" />
    <path
       style="fill:none;stroke:#b3b3b3;stroke-width:3;stroke-miterlimit:4;stroke-dasharray:none"
       d="m 5985.7248,1924.3965 c 15.586,-2.5973 29.6013,-11.8701 45.8528,-9.0076 49.7789,4.0807 89.8869,-34.8716 109.5808,-76.9962 28.2184,-47.8109 39.5545,-104.6568 31.0379,-159.6416 -5.5413,-57.3536 -12.1974,-115.689 -37.0061,-168.3615 -20.6457,-49.4934 -30.5115,-102.3213 -36.6125,-155.4249 -11.1329,-46.4321 -21.3191,-93.6807 -39.3055,-137.9804 -17.3909,-40.8889 -44.5161,-84.5567 -90.9466,-95.2929 -39.2678,-12.0366 -85.8703,-7.1028 -115.0407,24.2572 -38.0821,45.3014 -38.07,108.1567 -60.5983,160.7105 -27.4685,83.0431 -41.2266,170.7402 -38.8953,258.2418 -0.518,64.5113 6.029,131.103 37.3872,188.7122 19.8149,41.6505 50.8932,76.3206 76.9283,114.0333 27.8406,34.2127 72.6795,60.0755 117.618,56.7501 z"
       id="path4295"
       inkscape:connector-curvature="0" />
    <path
       style="fill:none;stroke:#b3b3b3;stroke-width:3;stroke-miterlimit:4;stroke-dasharray:none"
       d="m 6010.8593,1838.5984 c 54.3576,-11.9768 95.2279,-54.0638 125.3471,-98.3915 15.7209,-32.0368 31.5459,-65.0811 35.2496,-101.0191 9.2461,-53.3779 4.6184,-108.2939 -2.3294,-161.695 -8.8033,-41.3467 -19.6163,-82.5626 -36.1433,-121.3721 -28.2953,-57.1016 -72.1259,-109.0767 -131.3053,-135.5117 -36.7492,-18.8742 -79.3986,-28.22 -120.1133,-17.5344 -33.0988,9.2138 -61.3577,30.5231 -88.6907,50.5749 -29.3235,22.5491 -44.8559,59.8011 -40.1803,96.4665 3.0704,52.3334 37.5096,97.0256 38.9989,149.8018 2.846,43.2098 1.917,86.6057 -2.1392,129.643 -1.8889,53.8847 16.967,107.9313 48.1719,151.3529 21.143,27.6207 50.6826,49.9301 85.9907,54.2647 28.9334,3.6132 58.1286,10.7174 87.1433,3.42 z"
       id="path4297"
       inkscape:connector-curvature="0" />
    <path
       style="fill:none;stroke:#b3b3b3;stroke-width:3;stroke-miterlimit:4;stroke-dasharray:none"
       d="m 6032.7962,1818.7954 c 29.1572,-7.033 48.2495,-31.8349 59.8195,-58.0367 15.6958,-31.6848 19.8489,-67.5138 31.9194,-100.6041 16.4332,-56.8973 39.5135,-112.9051 40.5608,-172.9841 0.8616,-33.9963 0.4631,-69.2331 -15.7082,-99.9251 -11.7087,-26.1395 -26.8086,-50.6926 -41.7034,-75.0631 -42.1198,-49.2415 -100.8818,-90.7982 -167.7656,-92.662 -35.8314,-0.2363 -67.0776,19.0724 -94.5522,39.9717 -47.8955,31.494 -72.7956,88.7665 -80.1268,143.9788 -4.9462,53.8945 -0.9528,108.7203 10.2336,161.5707 12.1378,45.5695 42.4167,83.1921 71.8504,118.8526 18.3613,15.231 25.9069,37.7452 37.0354,57.9593 22.351,43.8447 68.5872,74.4634 117.3313,78.9293 10.3705,0.1135 20.9124,0.1438 31.1058,-1.9873 z"
       id="path4299"
       inkscape:connector-curvature="0" />
    <path
       style="fill:none;stroke:#b3b3b3;stroke-width:3;stroke-miterlimit:4;stroke-dasharray:none"
       d="m 5983.8369,1942.2196 c 38.2235,-5.59 70.7016,-28.474 103.6658,-46.9172 35.0133,-25.3747 59.0496,-63.4498 69.6283,-105.1423 23.1849,-47.6641 31.1657,-100.9178 40.7271,-152.5693 12.746,-112.1181 -13.4593,-223.7025 -39.8573,-331.9529 -15.3349,-45.7863 -18.8241,-99.2433 -57.1504,-133.4366 -46.3763,-54.1557 -120.4924,-88.1011 -192.0234,-72.0435 -42.5129,11.9942 -93.7116,11.348 -123.8964,48.8124 -38.6323,47.375 -45.6736,110.9846 -51.1037,169.6832 0.2179,62.9324 -8.5478,125.6194 -6.0591,188.5152 6.7503,72.0996 29.119,142.1913 30.8632,214.9575 2.317,51.0525 13.8383,103.941 48.3115,143.4755 29.4298,43.2105 76.7713,77.7559 130.713,78.5702 15.4025,0.086 30.8658,-0.203 46.1814,-1.9522 z"
       id="path4301"
       inkscape:connector-curvature="0" />
    <path
       style="fill:none;stroke:#b3b3b3;stroke-width:3;stroke-miterlimit:4;stroke-dasharray:none"
       d="m 6006.0949,1853.4396 c 39.6588,-11.2349 69.8408,-42.145 93,-74.5343 15.2482,-23.1462 29.281,-47.8845 38.3488,-73.9738 16.0585,-41.7404 23.3177,-86.2318 31.5495,-129.9732 3.6334,-42.7824 8.2154,-86.4661 3.673,-129.1091 -1.6474,-28.132 -22.8143,-50.8515 -24.7117,-79.0553 -9.7154,-71.0324 -53.1217,-139.5073 -120.7426,-168.0154 -38.1157,-17.6941 -81.9909,-15.4485 -122.8998,-12.4246 -50.8576,3.1823 -89.9538,42.8761 -114.2442,84.5268 -39.1806,66.8259 -42.2684,148.6769 -29.14,223.5256 6.9521,52.5317 5.3602,107.0708 26.3098,156.7721 15.331,44.5387 33.8396,88.1674 53.8572,130.7022 19.9851,39.1247 57.4499,75.1841 104.2157,73.7736 20.1878,-0.094 40.8964,1.9053 60.7843,-2.2146 z"
       id="path4303"
       inkscape:connector-curvature="0" />
    <path
       style="fill:none;stroke:#b3b3b3;stroke-width:3;stroke-miterlimit:4;stroke-dasharray:none"
       d="m 5994.1703,1780.728 c 43.9023,-7.7873 82.7715,-35.3982 111.3803,-68.7344 17.0364,-17.3901 27.3583,-39.1925 35.8274,-61.6705 17.4995,-38.6473 15.5013,-82.051 19.414,-123.3965 2.7151,-56.8563 -26.4086,-107.9069 -45.8029,-159.5288 -13.5836,-30.8447 -23.5795,-67.1295 -54.5011,-85.5157 -23.7115,-15.7731 -53.5945,-19.0386 -81.212,-19.7824 -28.7266,-10.8863 -59.9793,0.4698 -87.1442,10.8922 -45.2678,21.4872 -69.9413,68.1219 -90.1097,111.5249 -20.3656,50.5612 -29.3582,105.0707 -34.1623,159.1082 -3.1444,48.5888 17.1009,94.2261 35.0067,138.1785 16.1467,35.4209 41.4558,69.7458 80.3439,81.5792 25.6994,8.3128 52.351,13.6773 78.7993,18.8842 10.7328,1.0618 21.5157,-0.1737 32.1606,-1.5389 z"
       id="path4305"
       inkscape:connector-curvature="0" />
    <path
       id="path4307"
       style="fill:none;stroke:#ff0000;stroke-width:3;stroke-miterlimit:4;stroke-dasharray:none"
       d="m 5999.9586,1855.7486 c 36.4845,-7.8586 64.1006,-36.1677 82.9722,-65.5802 21.2274,-30.3433 36.0847,-64.1376 48.087,-100.4049 16.5499,-50.7343 30.0581,-102.9311 31.0219,-156.6558 0.2475,-44.4136 1.951,-89.5867 -10.7226,-131.8794 -9.9253,-36.8082 -22.6881,-72.9756 -38.7281,-107.1764 -18.9171,-34.0894 -46.2212,-65.4378 -80.2657,-85.5157 -32.1098,-21.0629 -71.4854,-27.391 -109.7309,-24.5291 -35.4023,4.4732 -66.5664,24.1652 -92.5428,47.4015 -40.0268,30.9558 -60.2103,82.5912 -62.7304,132.4495 -2.8044,44.0476 0.2746,88.9858 5.1219,132.8457 3.7184,45.4177 16.8066,86.9511 27.8409,126.9738 6.1049,36.9407 9.0285,78.9612 24.7314,117.4401 19.5213,50.4447 60.3676,94.5833 112.6011,107.3042 19.0032,6.8208 41.1745,10.6951 62.3463,7.3267 0,0 0,0 0,0"
       inkscape:connector-curvature="0" />
    <path
       style="fill:#b87313;fill-opacity:0.15591398"
       d="m 6669.4172,1934.9099 c 46.1171,-7.7415 83.7703,-42.9062 104.1842,-83.6691 19.6516,-29.1346 50.3471,-50.5791 61.5767,-85.6718 21.7427,-53.206 24.2738,-112.13 27.4017,-168.9592 -1.0665,-68.9076 9.0569,-138.2088 -2.9012,-206.6218 -10.0228,-59.3154 -20.0558,-119.4148 -41.2063,-176.0518 -16.0943,-44.0799 -43.3206,-85.884 -85.9358,-108.2392 -36.2964,-26.3054 -83.8301,-20.1201 -125.4076,-14.7404 -29.8022,9.4492 -59.9593,22.2976 -85.6817,40.5026 -37.8543,29.3203 -55.0982,80.5214 -44.5479,126.977 5.5994,28.7861 9.1238,57.5976 5.0221,87.283 -11.0415,61.5737 -21.6035,123.332 -40.016,183.2329 -15.9853,88.4319 -24.39,182.8779 9.2235,268.4528 19.0528,62.2652 67.0025,123.9373 135.8741,131.365 27.2391,2.9772 54.9519,9.9021 82.4142,6.14 z"
       id="path5077"
       inkscape:connector-curvature="0" />
    <path
       style="fill:#b87313;fill-opacity:0.15591398"
       d="m 6631.2582,1819.9632 c 49.9356,-11.2278 91.7707,-42.6628 135.4458,-67.7072 38.9348,-26.831 63.5398,-69.1099 80.667,-112.1702 13.435,-35.78 17.8009,-73.8715 16.1232,-111.8977 0.6076,-65.7816 -5.1281,-133.0719 -29.3397,-194.7159 -24.2752,-46.8361 -64.029,-85.9094 -111.0278,-109.7681 -46.5106,-23.6435 -101.3134,-29.175 -152.2407,-19.668 -50.8118,13.7016 -86.3794,57.2059 -112.6278,100.381 -33.7742,58.8248 -31.3914,129.6531 -24.0804,194.8626 6.6287,52.6963 11.3791,105.6889 16.8326,158.5108 9.7786,55.111 28.4556,116.1849 77.9674,148.2577 29.8166,20.2502 68.1706,17.7733 102.2804,13.915 z"
       id="path5079"
       inkscape:connector-curvature="0" />
    <path
       style="fill:#b87313;fill-opacity:0.15591398"
       d="m 6719.0904,1858.3419 c 29.3875,-9.9636 55.698,-34.2195 67.5042,-62.9081 17.7152,-40.6056 16.0983,-85.2551 18.5433,-128.4722 2.2201,-26.4149 7.0709,-52.0399 8.4146,-78.5572 2.5195,-40.2762 5.6943,-80.5112 12.0406,-120.3772 1.8674,-32.6556 -5.2713,-65.0403 -2.4542,-97.7788 1.5014,-50.7127 -16.124,-100.2891 -38.5124,-145.0839 -21.5195,-41.8299 -69.5032,-62.026 -114.8558,-61.3094 -27.2647,-3.3581 -55.4654,-3.9674 -80.7852,8.5233 -46.9044,15.7107 -83.01,54.9942 -98.0343,101.7068 -16.5983,41.4485 -16.7514,86.8511 -22.8844,130.5103 -2.5706,80.5886 4.5542,162.8611 31.9623,239.1641 23.9745,56.345 53.2743,110.7926 89.3611,160.3132 29.1858,38.3867 81.2675,64.0783 129.7002,54.2691 z"
       id="path5081"
       inkscape:connector-curvature="0" />
    <path
       style="fill:#b87313;fill-opacity:0.15591398"
       d="m 6608.4432,1820.3961 c 42.0627,-5.6447 73.6565,-36.955 108.405,-58.3359 45.7812,-30.8815 86.1046,-74.4934 100.7182,-128.8682 13.5729,-43.6764 23.3431,-89.0903 20.5522,-135.1193 -0.035,-58.9976 -12.4381,-117.6974 -38.7788,-170.5929 -16.8727,-41.4664 -39.8167,-83.6188 -80.3778,-106.2788 -25.1869,-14.3381 -55.6324,-27.5707 -84.4888,-15.6727 -28.8163,3.3826 -59.5398,3.1614 -82.5471,24.1373 -24.8097,18.917 -48.1384,40.9048 -60.3245,70.3203 -25.9081,51.8693 -38.9447,109.8568 -36.3972,167.8721 1.1502,69.4954 6.7965,138.9087 14.509,207.946 6.4434,45.6168 24.6083,91.6735 62.2687,120.3929 21.3137,16.7872 48.8942,28.5456 76.4611,24.1992 z"
       id="path5083"
       inkscape:connector-curvature="0" />
    <path
       style="fill:#b87313;fill-opacity:0.15591398"
       d="m 6668.2166,1915.3348 c 15.586,-2.5973 29.6013,-11.8701 45.8528,-9.0076 49.7789,4.0807 89.8869,-34.8716 109.5808,-76.9962 28.2184,-47.8109 39.5545,-104.6568 31.0379,-159.6416 -5.5413,-57.3536 -12.1974,-115.689 -37.0061,-168.3615 -20.6457,-49.4934 -30.5115,-102.3213 -36.6125,-155.4249 -11.1329,-46.4321 -21.3191,-93.6807 -39.3055,-137.9804 -17.3909,-40.8889 -44.5161,-84.5567 -90.9466,-95.2929 -39.2678,-12.0366 -85.8703,-7.1028 -115.0407,24.2572 -38.0821,45.3014 -38.07,108.1567 -60.5983,160.7105 -27.4685,83.0431 -41.2266,170.7402 -38.8953,258.2418 -0.518,64.5113 6.029,131.103 37.3872,188.7122 19.8149,41.6505 50.8932,76.3206 76.9283,114.0333 27.8406,34.2127 72.6795,60.0755 117.618,56.7501 z"
       id="path5085"
       inkscape:connector-curvature="0" />
    <path
       style="fill:#b87313;fill-opacity:0.15591398"
       d="m 6693.3511,1829.5367 c 54.3576,-11.9768 95.2279,-54.0638 125.3471,-98.3915 15.7209,-32.0368 31.5459,-65.0811 35.2496,-101.0191 9.2461,-53.3779 4.6184,-108.2939 -2.3294,-161.695 -8.8033,-41.3467 -19.6163,-82.5626 -36.1433,-121.3721 -28.2953,-57.1016 -72.1259,-109.0767 -131.3053,-135.5117 -36.7492,-18.8742 -79.3986,-28.22 -120.1133,-17.5344 -33.0988,9.2138 -61.3577,30.5231 -88.6907,50.5749 -29.3235,22.5491 -44.8559,59.8011 -40.1803,96.4665 3.0704,52.3334 37.5096,97.0256 38.9989,149.8018 2.846,43.2098 1.917,86.6057 -2.1392,129.643 -1.8889,53.8847 16.967,107.9313 48.1719,151.3529 21.143,27.6207 50.6826,49.9301 85.9907,54.2647 28.9334,3.6132 58.1286,10.7174 87.1433,3.42 z"
       id="path5087"
       inkscape:connector-curvature="0" />
    <path
       style="fill:#b87313;fill-opacity:0.15591398"
       d="m 6715.2881,1809.7337 c 29.1572,-7.033 48.2495,-31.8349 59.8195,-58.0367 15.6958,-31.6848 19.8489,-67.5138 31.9194,-100.6041 16.4332,-56.8973 39.5135,-112.9051 40.5608,-172.9841 0.8616,-33.9963 0.4631,-69.2331 -15.7082,-99.9251 -11.7087,-26.1395 -26.8086,-50.6926 -41.7034,-75.0631 -42.1198,-49.2415 -100.8818,-90.7982 -167.7656,-92.662 -35.8314,-0.2363 -67.0776,19.0724 -94.5522,39.9717 -47.8955,31.494 -72.7956,88.7665 -80.1269,143.9788 -4.9462,53.8945 -0.9528,108.7203 10.2337,161.5707 12.1378,45.5695 42.4167,83.1921 71.8504,118.8526 18.3613,15.231 25.9069,37.7452 37.0354,57.9593 22.351,43.8447 68.5872,74.4634 117.3313,78.9293 10.3705,0.1135 20.9124,0.1438 31.1058,-1.9873 z"
       id="path5089"
       inkscape:connector-curvature="0" />
    <path
       style="fill:#b87313;fill-opacity:0.15591398"
       d="m 6666.3286,1933.1579 c 38.2235,-5.59 70.7016,-28.474 103.6658,-46.9172 35.0133,-25.3747 59.0496,-63.4498 69.6283,-105.1423 23.1849,-47.6641 31.1657,-100.9178 40.7271,-152.5693 12.746,-112.1181 -13.4593,-223.7025 -39.8573,-331.9529 -15.3349,-45.7863 -18.8241,-99.2433 -57.1504,-133.4366 -46.3763,-54.1557 -120.4924,-88.1011 -192.0234,-72.0435 -42.5129,11.9942 -93.7116,11.348 -123.8963,48.8124 -38.6323,47.375 -45.6736,110.9846 -51.1037,169.6832 0.2179,62.9324 -8.5478,125.6194 -6.0591,188.5152 6.7503,72.0996 29.119,142.1913 30.8632,214.9575 2.317,51.0525 13.8383,103.941 48.3114,143.4755 29.4298,43.2105 76.7713,77.7559 130.713,78.5702 15.4025,0.086 30.8658,-0.203 46.1814,-1.9522 z"
       id="path5091"
       inkscape:connector-curvature="0" />
    <path
       style="fill:#b87313;fill-opacity:0.15591398"
       d="m 6688.5867,1844.3779 c 39.6588,-11.2349 69.8408,-42.145 93,-74.5343 15.2482,-23.1462 29.281,-47.8845 38.3488,-73.9738 16.0585,-41.7404 23.3177,-86.2318 31.5495,-129.9732 3.6334,-42.7824 8.2154,-86.4661 3.673,-129.1091 -1.6474,-28.132 -22.8143,-50.8515 -24.7117,-79.0553 -9.7154,-71.0324 -53.1217,-139.5073 -120.7426,-168.0154 -38.1157,-17.6941 -81.9909,-15.4485 -122.8998,-12.4246 -50.8576,3.1823 -89.9538,42.8761 -114.2442,84.5268 -39.1806,66.8259 -42.2684,148.6769 -29.14,223.5256 6.9521,52.5317 5.3602,107.0708 26.3098,156.7721 15.331,44.5387 33.8396,88.1674 53.8572,130.7022 19.9851,39.1247 57.4499,75.1841 104.2157,73.7736 20.1878,-0.094 40.8964,1.9053 60.7843,-2.2146 z"
       id="path5093"
       inkscape:connector-curvature="0" />
    <path
       style="fill:#b87313;fill-opacity:0.15591398"
       d="m 6676.6621,1771.6664 c 43.9023,-7.7873 82.7715,-35.3982 111.3803,-68.7344 17.0364,-17.3901 27.3583,-39.1925 35.8274,-61.6705 17.4995,-38.6473 15.5013,-82.051 19.414,-123.3965 2.7151,-56.8563 -26.4086,-107.9069 -45.8029,-159.5288 -13.5836,-30.8447 -23.5795,-67.1295 -54.5011,-85.5157 -23.7115,-15.7731 -53.5945,-19.0386 -81.212,-19.7824 -28.7266,-10.8863 -59.9793,0.4698 -87.1442,10.8922 -45.2678,21.4872 -69.9413,68.1219 -90.1097,111.5249 -20.3656,50.5612 -29.3582,105.0707 -34.1623,159.1082 -3.1444,48.5888 17.1009,94.2261 35.0067,138.1785 16.1467,35.4209 41.4558,69.7458 80.3439,81.5792 25.6994,8.3128 52.351,13.6773 78.7993,18.8842 10.7328,1.0618 21.5157,-0.1737 32.1606,-1.5389 z"
       id="path5095"
       inkscape:connector-curvature="0" />
    <path
       inkscape:connector-curvature="0"
       d="m 6682.4504,1846.687 c 36.4845,-7.8586 64.1006,-36.1677 82.9722,-65.5802 21.2274,-30.3433 36.0847,-64.1376 48.087,-100.4049 16.5499,-50.7343 30.0581,-102.9311 31.0219,-156.6558 0.2475,-44.4136 1.951,-89.5867 -10.7226,-131.8794 -9.9253,-36.8082 -22.6881,-72.9756 -38.7281,-107.1764 -18.9171,-34.0894 -46.2212,-65.4378 -80.2657,-85.5157 -32.1098,-21.0629 -71.4854,-27.391 -109.7309,-24.5291 -35.4023,4.4732 -66.5664,24.1652 -92.5428,47.4015 -40.0268,30.9558 -60.2103,82.5912 -62.7304,132.4495 -2.8044,44.0476 0.2746,88.9858 5.1219,132.8457 3.7184,45.4177 16.8066,86.9511 27.8409,126.9738 6.1049,36.9407 9.0285,78.9612 24.7314,117.4401 19.5213,50.4447 60.3676,94.5833 112.6011,107.3042 19.0032,6.8208 41.1745,10.6951 62.3463,7.3267 0,0 0,0 0,0"
       style="fill:none;stroke:#ffffff;stroke-width:3;stroke-miterlimit:4;stroke-opacity:1;stroke-dasharray:18, 18;stroke-dashoffset:0"
       id="path4253" />
    <path
       inkscape:connector-curvature="0"
       d="m 5072.8157,1780.0343 c 36.4845,-7.8586 64.1006,-36.1677 82.9722,-65.5802 21.2274,-30.3433 36.0847,-64.1376 48.087,-100.4049 16.5499,-50.7343 30.0581,-102.9311 31.0219,-156.6558 0.2475,-44.4136 1.951,-89.5867 -10.7226,-131.8794 -9.9253,-36.8082 -22.6881,-72.9756 -38.7281,-107.1764 -18.9171,-34.0894 -46.2212,-65.4378 -80.2657,-85.5157 -32.1098,-21.0629 -71.4854,-27.391 -109.7309,-24.5291 -35.4023,4.4732 -66.5664,24.1652 -92.5428,47.4015 -40.0268,30.9558 -60.2103,82.5912 -62.7304,132.4495 -2.8044,44.0476 0.2746,88.9858 5.1219,132.8457 3.7184,45.4177 16.8066,86.9511 27.8409,126.9738 6.1049,36.9407 9.0285,78.9612 24.7314,117.4401 19.5213,50.4447 60.3676,94.5833 112.6011,107.3042 19.0032,6.8208 41.1745,10.6951 62.3463,7.3267 0,0 0,0 0,0"
       style="fill:#d4aa00;stroke:none;stroke-width:3;stroke-miterlimit:4;stroke-dasharray:none"
       id="path5116" />
  </g>
</svg>
